(kicad_sch (version 20211123) (generator eeschema)

  (uuid 6ca39762-dfac-409e-a77b-ab00478666bd)

  (paper "A4")

  (lib_symbols
    (symbol "Comparator:TL331" (pin_names (offset 0.127)) (in_bom yes) (on_board yes)
      (property "Reference" "U" (id 0) (at 1.27 5.08 0)
        (effects (font (size 1.27 1.27)))
      )
      (property "Value" "TL331" (id 1) (at 3.81 -5.08 0)
        (effects (font (size 1.27 1.27)))
      )
      (property "Footprint" "Package_TO_SOT_SMD:SOT-23-5" (id 2) (at 1.27 -15.24 0)
        (effects (font (size 1.27 1.27)) hide)
      )
      (property "Datasheet" "http://www.ti.com/lit/ds/symlink/tl331.pdf" (id 3) (at 0 5.08 0)
        (effects (font (size 1.27 1.27)) hide)
      )
      (property "ki_keywords" "single comparator" (id 4) (at 0 0 0)
        (effects (font (size 1.27 1.27)) hide)
      )
      (property "ki_description" "Single Differential Comparator with Open-Collector Output, SOT-23-5" (id 5) (at 0 0 0)
        (effects (font (size 1.27 1.27)) hide)
      )
      (property "ki_fp_filters" "SOT?23*" (id 6) (at 0 0 0)
        (effects (font (size 1.27 1.27)) hide)
      )
      (symbol "TL331_0_1"
        (polyline
          (pts
            (xy -5.08 5.08)
            (xy 5.08 0)
            (xy -5.08 -5.08)
            (xy -5.08 5.08)
          )
          (stroke (width 0.254) (type default) (color 0 0 0 0))
          (fill (type background))
        )
      )
      (symbol "TL331_1_1"
        (pin input line (at -7.62 -2.54 0) (length 2.54)
          (name "-" (effects (font (size 1.27 1.27))))
          (number "1" (effects (font (size 1.27 1.27))))
        )
        (pin power_in line (at -2.54 -7.62 90) (length 3.81)
          (name "V-" (effects (font (size 1.27 1.27))))
          (number "2" (effects (font (size 1.27 1.27))))
        )
        (pin input line (at -7.62 2.54 0) (length 2.54)
          (name "+" (effects (font (size 1.27 1.27))))
          (number "3" (effects (font (size 1.27 1.27))))
        )
        (pin open_collector line (at 7.62 0 180) (length 2.54)
          (name "~" (effects (font (size 1.27 1.27))))
          (number "4" (effects (font (size 1.27 1.27))))
        )
        (pin power_in line (at -2.54 7.62 270) (length 3.81)
          (name "V+" (effects (font (size 1.27 1.27))))
          (number "5" (effects (font (size 1.27 1.27))))
        )
      )
    )
    (symbol "Device:C_Small" (pin_numbers hide) (pin_names (offset 0.254) hide) (in_bom yes) (on_board yes)
      (property "Reference" "C" (id 0) (at 0.254 1.778 0)
        (effects (font (size 1.27 1.27)) (justify left))
      )
      (property "Value" "C_Small" (id 1) (at 0.254 -2.032 0)
        (effects (font (size 1.27 1.27)) (justify left))
      )
      (property "Footprint" "" (id 2) (at 0 0 0)
        (effects (font (size 1.27 1.27)) hide)
      )
      (property "Datasheet" "~" (id 3) (at 0 0 0)
        (effects (font (size 1.27 1.27)) hide)
      )
      (property "ki_keywords" "capacitor cap" (id 4) (at 0 0 0)
        (effects (font (size 1.27 1.27)) hide)
      )
      (property "ki_description" "Unpolarized capacitor, small symbol" (id 5) (at 0 0 0)
        (effects (font (size 1.27 1.27)) hide)
      )
      (property "ki_fp_filters" "C_*" (id 6) (at 0 0 0)
        (effects (font (size 1.27 1.27)) hide)
      )
      (symbol "C_Small_0_1"
        (polyline
          (pts
            (xy -1.524 -0.508)
            (xy 1.524 -0.508)
          )
          (stroke (width 0.3302) (type default) (color 0 0 0 0))
          (fill (type none))
        )
        (polyline
          (pts
            (xy -1.524 0.508)
            (xy 1.524 0.508)
          )
          (stroke (width 0.3048) (type default) (color 0 0 0 0))
          (fill (type none))
        )
      )
      (symbol "C_Small_1_1"
        (pin passive line (at 0 2.54 270) (length 2.032)
          (name "~" (effects (font (size 1.27 1.27))))
          (number "1" (effects (font (size 1.27 1.27))))
        )
        (pin passive line (at 0 -2.54 90) (length 2.032)
          (name "~" (effects (font (size 1.27 1.27))))
          (number "2" (effects (font (size 1.27 1.27))))
        )
      )
    )
    (symbol "Device:D_Schottky_Small" (pin_numbers hide) (pin_names (offset 0.254) hide) (in_bom yes) (on_board yes)
      (property "Reference" "D" (id 0) (at -1.27 2.032 0)
        (effects (font (size 1.27 1.27)) (justify left))
      )
      (property "Value" "D_Schottky_Small" (id 1) (at -7.112 -2.032 0)
        (effects (font (size 1.27 1.27)) (justify left))
      )
      (property "Footprint" "" (id 2) (at 0 0 90)
        (effects (font (size 1.27 1.27)) hide)
      )
      (property "Datasheet" "~" (id 3) (at 0 0 90)
        (effects (font (size 1.27 1.27)) hide)
      )
      (property "ki_keywords" "diode Schottky" (id 4) (at 0 0 0)
        (effects (font (size 1.27 1.27)) hide)
      )
      (property "ki_description" "Schottky diode, small symbol" (id 5) (at 0 0 0)
        (effects (font (size 1.27 1.27)) hide)
      )
      (property "ki_fp_filters" "TO-???* *_Diode_* *SingleDiode* D_*" (id 6) (at 0 0 0)
        (effects (font (size 1.27 1.27)) hide)
      )
      (symbol "D_Schottky_Small_0_1"
        (polyline
          (pts
            (xy -0.762 0)
            (xy 0.762 0)
          )
          (stroke (width 0) (type default) (color 0 0 0 0))
          (fill (type none))
        )
        (polyline
          (pts
            (xy 0.762 -1.016)
            (xy -0.762 0)
            (xy 0.762 1.016)
            (xy 0.762 -1.016)
          )
          (stroke (width 0.254) (type default) (color 0 0 0 0))
          (fill (type none))
        )
        (polyline
          (pts
            (xy -1.27 0.762)
            (xy -1.27 1.016)
            (xy -0.762 1.016)
            (xy -0.762 -1.016)
            (xy -0.254 -1.016)
            (xy -0.254 -0.762)
          )
          (stroke (width 0.254) (type default) (color 0 0 0 0))
          (fill (type none))
        )
      )
      (symbol "D_Schottky_Small_1_1"
        (pin passive line (at -2.54 0 0) (length 1.778)
          (name "K" (effects (font (size 1.27 1.27))))
          (number "1" (effects (font (size 1.27 1.27))))
        )
        (pin passive line (at 2.54 0 180) (length 1.778)
          (name "A" (effects (font (size 1.27 1.27))))
          (number "2" (effects (font (size 1.27 1.27))))
        )
      )
    )
    (symbol "Device:D_TVS" (pin_numbers hide) (pin_names (offset 1.016) hide) (in_bom yes) (on_board yes)
      (property "Reference" "D" (id 0) (at 0 2.54 0)
        (effects (font (size 1.27 1.27)))
      )
      (property "Value" "D_TVS" (id 1) (at 0 -2.54 0)
        (effects (font (size 1.27 1.27)))
      )
      (property "Footprint" "" (id 2) (at 0 0 0)
        (effects (font (size 1.27 1.27)) hide)
      )
      (property "Datasheet" "~" (id 3) (at 0 0 0)
        (effects (font (size 1.27 1.27)) hide)
      )
      (property "ki_keywords" "diode TVS thyrector" (id 4) (at 0 0 0)
        (effects (font (size 1.27 1.27)) hide)
      )
      (property "ki_description" "Bidirectional transient-voltage-suppression diode" (id 5) (at 0 0 0)
        (effects (font (size 1.27 1.27)) hide)
      )
      (property "ki_fp_filters" "TO-???* *_Diode_* *SingleDiode* D_*" (id 6) (at 0 0 0)
        (effects (font (size 1.27 1.27)) hide)
      )
      (symbol "D_TVS_0_1"
        (polyline
          (pts
            (xy 1.27 0)
            (xy -1.27 0)
          )
          (stroke (width 0) (type default) (color 0 0 0 0))
          (fill (type none))
        )
        (polyline
          (pts
            (xy 0.508 1.27)
            (xy 0 1.27)
            (xy 0 -1.27)
            (xy -0.508 -1.27)
          )
          (stroke (width 0.254) (type default) (color 0 0 0 0))
          (fill (type none))
        )
        (polyline
          (pts
            (xy -2.54 1.27)
            (xy -2.54 -1.27)
            (xy 2.54 1.27)
            (xy 2.54 -1.27)
            (xy -2.54 1.27)
          )
          (stroke (width 0.254) (type default) (color 0 0 0 0))
          (fill (type none))
        )
      )
      (symbol "D_TVS_1_1"
        (pin passive line (at -3.81 0 0) (length 2.54)
          (name "A1" (effects (font (size 1.27 1.27))))
          (number "1" (effects (font (size 1.27 1.27))))
        )
        (pin passive line (at 3.81 0 180) (length 2.54)
          (name "A2" (effects (font (size 1.27 1.27))))
          (number "2" (effects (font (size 1.27 1.27))))
        )
      )
    )
    (symbol "Device:D_Zener" (pin_numbers hide) (pin_names (offset 1.016) hide) (in_bom yes) (on_board yes)
      (property "Reference" "D" (id 0) (at 0 2.54 0)
        (effects (font (size 1.27 1.27)))
      )
      (property "Value" "D_Zener" (id 1) (at 0 -2.54 0)
        (effects (font (size 1.27 1.27)))
      )
      (property "Footprint" "" (id 2) (at 0 0 0)
        (effects (font (size 1.27 1.27)) hide)
      )
      (property "Datasheet" "~" (id 3) (at 0 0 0)
        (effects (font (size 1.27 1.27)) hide)
      )
      (property "ki_keywords" "diode" (id 4) (at 0 0 0)
        (effects (font (size 1.27 1.27)) hide)
      )
      (property "ki_description" "Zener diode" (id 5) (at 0 0 0)
        (effects (font (size 1.27 1.27)) hide)
      )
      (property "ki_fp_filters" "TO-???* *_Diode_* *SingleDiode* D_*" (id 6) (at 0 0 0)
        (effects (font (size 1.27 1.27)) hide)
      )
      (symbol "D_Zener_0_1"
        (polyline
          (pts
            (xy 1.27 0)
            (xy -1.27 0)
          )
          (stroke (width 0) (type default) (color 0 0 0 0))
          (fill (type none))
        )
        (polyline
          (pts
            (xy -1.27 -1.27)
            (xy -1.27 1.27)
            (xy -0.762 1.27)
          )
          (stroke (width 0.254) (type default) (color 0 0 0 0))
          (fill (type none))
        )
        (polyline
          (pts
            (xy 1.27 -1.27)
            (xy 1.27 1.27)
            (xy -1.27 0)
            (xy 1.27 -1.27)
          )
          (stroke (width 0.254) (type default) (color 0 0 0 0))
          (fill (type none))
        )
      )
      (symbol "D_Zener_1_1"
        (pin passive line (at -3.81 0 0) (length 2.54)
          (name "K" (effects (font (size 1.27 1.27))))
          (number "1" (effects (font (size 1.27 1.27))))
        )
        (pin passive line (at 3.81 0 180) (length 2.54)
          (name "A" (effects (font (size 1.27 1.27))))
          (number "2" (effects (font (size 1.27 1.27))))
        )
      )
    )
    (symbol "Device:LED" (pin_numbers hide) (pin_names (offset 1.016) hide) (in_bom yes) (on_board yes)
      (property "Reference" "D" (id 0) (at 0 2.54 0)
        (effects (font (size 1.27 1.27)))
      )
      (property "Value" "LED" (id 1) (at 0 -2.54 0)
        (effects (font (size 1.27 1.27)))
      )
      (property "Footprint" "" (id 2) (at 0 0 0)
        (effects (font (size 1.27 1.27)) hide)
      )
      (property "Datasheet" "~" (id 3) (at 0 0 0)
        (effects (font (size 1.27 1.27)) hide)
      )
      (property "ki_keywords" "LED diode" (id 4) (at 0 0 0)
        (effects (font (size 1.27 1.27)) hide)
      )
      (property "ki_description" "Light emitting diode" (id 5) (at 0 0 0)
        (effects (font (size 1.27 1.27)) hide)
      )
      (property "ki_fp_filters" "LED* LED_SMD:* LED_THT:*" (id 6) (at 0 0 0)
        (effects (font (size 1.27 1.27)) hide)
      )
      (symbol "LED_0_1"
        (polyline
          (pts
            (xy -1.27 -1.27)
            (xy -1.27 1.27)
          )
          (stroke (width 0.254) (type default) (color 0 0 0 0))
          (fill (type none))
        )
        (polyline
          (pts
            (xy -1.27 0)
            (xy 1.27 0)
          )
          (stroke (width 0) (type default) (color 0 0 0 0))
          (fill (type none))
        )
        (polyline
          (pts
            (xy 1.27 -1.27)
            (xy 1.27 1.27)
            (xy -1.27 0)
            (xy 1.27 -1.27)
          )
          (stroke (width 0.254) (type default) (color 0 0 0 0))
          (fill (type none))
        )
        (polyline
          (pts
            (xy -3.048 -0.762)
            (xy -4.572 -2.286)
            (xy -3.81 -2.286)
            (xy -4.572 -2.286)
            (xy -4.572 -1.524)
          )
          (stroke (width 0) (type default) (color 0 0 0 0))
          (fill (type none))
        )
        (polyline
          (pts
            (xy -1.778 -0.762)
            (xy -3.302 -2.286)
            (xy -2.54 -2.286)
            (xy -3.302 -2.286)
            (xy -3.302 -1.524)
          )
          (stroke (width 0) (type default) (color 0 0 0 0))
          (fill (type none))
        )
      )
      (symbol "LED_1_1"
        (pin passive line (at -3.81 0 0) (length 2.54)
          (name "K" (effects (font (size 1.27 1.27))))
          (number "1" (effects (font (size 1.27 1.27))))
        )
        (pin passive line (at 3.81 0 180) (length 2.54)
          (name "A" (effects (font (size 1.27 1.27))))
          (number "2" (effects (font (size 1.27 1.27))))
        )
      )
    )
    (symbol "Device:Polyfuse" (pin_numbers hide) (pin_names (offset 0)) (in_bom yes) (on_board yes)
      (property "Reference" "F" (id 0) (at -2.54 0 90)
        (effects (font (size 1.27 1.27)))
      )
      (property "Value" "Polyfuse" (id 1) (at 2.54 0 90)
        (effects (font (size 1.27 1.27)))
      )
      (property "Footprint" "" (id 2) (at 1.27 -5.08 0)
        (effects (font (size 1.27 1.27)) (justify left) hide)
      )
      (property "Datasheet" "~" (id 3) (at 0 0 0)
        (effects (font (size 1.27 1.27)) hide)
      )
      (property "ki_keywords" "resettable fuse PTC PPTC polyfuse polyswitch" (id 4) (at 0 0 0)
        (effects (font (size 1.27 1.27)) hide)
      )
      (property "ki_description" "Resettable fuse, polymeric positive temperature coefficient" (id 5) (at 0 0 0)
        (effects (font (size 1.27 1.27)) hide)
      )
      (property "ki_fp_filters" "*polyfuse* *PTC*" (id 6) (at 0 0 0)
        (effects (font (size 1.27 1.27)) hide)
      )
      (symbol "Polyfuse_0_1"
        (rectangle (start -0.762 2.54) (end 0.762 -2.54)
          (stroke (width 0.254) (type default) (color 0 0 0 0))
          (fill (type none))
        )
        (polyline
          (pts
            (xy 0 2.54)
            (xy 0 -2.54)
          )
          (stroke (width 0) (type default) (color 0 0 0 0))
          (fill (type none))
        )
        (polyline
          (pts
            (xy -1.524 2.54)
            (xy -1.524 1.524)
            (xy 1.524 -1.524)
            (xy 1.524 -2.54)
          )
          (stroke (width 0) (type default) (color 0 0 0 0))
          (fill (type none))
        )
      )
      (symbol "Polyfuse_1_1"
        (pin passive line (at 0 3.81 270) (length 1.27)
          (name "~" (effects (font (size 1.27 1.27))))
          (number "1" (effects (font (size 1.27 1.27))))
        )
        (pin passive line (at 0 -3.81 90) (length 1.27)
          (name "~" (effects (font (size 1.27 1.27))))
          (number "2" (effects (font (size 1.27 1.27))))
        )
      )
    )
    (symbol "Device:R_Small_US" (pin_numbers hide) (pin_names (offset 0.254) hide) (in_bom yes) (on_board yes)
      (property "Reference" "R" (id 0) (at 0.762 0.508 0)
        (effects (font (size 1.27 1.27)) (justify left))
      )
      (property "Value" "R_Small_US" (id 1) (at 0.762 -1.016 0)
        (effects (font (size 1.27 1.27)) (justify left))
      )
      (property "Footprint" "" (id 2) (at 0 0 0)
        (effects (font (size 1.27 1.27)) hide)
      )
      (property "Datasheet" "~" (id 3) (at 0 0 0)
        (effects (font (size 1.27 1.27)) hide)
      )
      (property "ki_keywords" "r resistor" (id 4) (at 0 0 0)
        (effects (font (size 1.27 1.27)) hide)
      )
      (property "ki_description" "Resistor, small US symbol" (id 5) (at 0 0 0)
        (effects (font (size 1.27 1.27)) hide)
      )
      (property "ki_fp_filters" "R_*" (id 6) (at 0 0 0)
        (effects (font (size 1.27 1.27)) hide)
      )
      (symbol "R_Small_US_1_1"
        (polyline
          (pts
            (xy 0 0)
            (xy 1.016 -0.381)
            (xy 0 -0.762)
            (xy -1.016 -1.143)
            (xy 0 -1.524)
          )
          (stroke (width 0) (type default) (color 0 0 0 0))
          (fill (type none))
        )
        (polyline
          (pts
            (xy 0 1.524)
            (xy 1.016 1.143)
            (xy 0 0.762)
            (xy -1.016 0.381)
            (xy 0 0)
          )
          (stroke (width 0) (type default) (color 0 0 0 0))
          (fill (type none))
        )
        (pin passive line (at 0 2.54 270) (length 1.016)
          (name "~" (effects (font (size 1.27 1.27))))
          (number "1" (effects (font (size 1.27 1.27))))
        )
        (pin passive line (at 0 -2.54 90) (length 1.016)
          (name "~" (effects (font (size 1.27 1.27))))
          (number "2" (effects (font (size 1.27 1.27))))
        )
      )
    )
    (symbol "Reference_Voltage:LM4040DBZ-10" (pin_names (offset 0.0254) hide) (in_bom yes) (on_board yes)
      (property "Reference" "U" (id 0) (at 0 2.54 0)
        (effects (font (size 1.27 1.27)))
      )
      (property "Value" "LM4040DBZ-10" (id 1) (at 0 -3.175 0)
        (effects (font (size 1.27 1.27)))
      )
      (property "Footprint" "Package_TO_SOT_SMD:SOT-23" (id 2) (at 0 -5.08 0)
        (effects (font (size 1.27 1.27) italic) hide)
      )
      (property "Datasheet" "http://www.ti.com/lit/ds/symlink/lm4040-n.pdf" (id 3) (at 0 0 0)
        (effects (font (size 1.27 1.27) italic) hide)
      )
      (property "ki_keywords" "diode device voltage reference shunt" (id 4) (at 0 0 0)
        (effects (font (size 1.27 1.27)) hide)
      )
      (property "ki_description" "10.00V Precision Micropower Shunt Voltage Reference, SOT-23" (id 5) (at 0 0 0)
        (effects (font (size 1.27 1.27)) hide)
      )
      (property "ki_fp_filters" "SOT?23*" (id 6) (at 0 0 0)
        (effects (font (size 1.27 1.27)) hide)
      )
      (symbol "LM4040DBZ-10_0_1"
        (polyline
          (pts
            (xy -1.27 0)
            (xy 0 0)
            (xy 1.27 0)
          )
          (stroke (width 0) (type default) (color 0 0 0 0))
          (fill (type none))
        )
        (polyline
          (pts
            (xy -1.27 -1.27)
            (xy 0.635 0)
            (xy -1.27 1.27)
            (xy -1.27 -1.27)
          )
          (stroke (width 0.2032) (type default) (color 0 0 0 0))
          (fill (type none))
        )
        (polyline
          (pts
            (xy 0 -1.27)
            (xy 0.635 -1.27)
            (xy 0.635 1.27)
            (xy 1.27 1.27)
          )
          (stroke (width 0.2032) (type default) (color 0 0 0 0))
          (fill (type none))
        )
      )
      (symbol "LM4040DBZ-10_1_1"
        (pin passive line (at 3.81 0 180) (length 2.54)
          (name "K" (effects (font (size 1.27 1.27))))
          (number "1" (effects (font (size 1.27 1.27))))
        )
        (pin passive line (at -3.81 0 0) (length 2.54)
          (name "A" (effects (font (size 1.27 1.27))))
          (number "2" (effects (font (size 1.27 1.27))))
        )
      )
    )
    (symbol "Switch:SW_SPDT" (pin_names (offset 0) hide) (in_bom yes) (on_board yes)
      (property "Reference" "SW" (id 0) (at 0 4.318 0)
        (effects (font (size 1.27 1.27)))
      )
      (property "Value" "SW_SPDT" (id 1) (at 0 -5.08 0)
        (effects (font (size 1.27 1.27)))
      )
      (property "Footprint" "" (id 2) (at 0 0 0)
        (effects (font (size 1.27 1.27)) hide)
      )
      (property "Datasheet" "~" (id 3) (at 0 0 0)
        (effects (font (size 1.27 1.27)) hide)
      )
      (property "ki_keywords" "switch single-pole double-throw spdt ON-ON" (id 4) (at 0 0 0)
        (effects (font (size 1.27 1.27)) hide)
      )
      (property "ki_description" "Switch, single pole double throw" (id 5) (at 0 0 0)
        (effects (font (size 1.27 1.27)) hide)
      )
      (symbol "SW_SPDT_0_0"
        (circle (center -2.032 0) (radius 0.508)
          (stroke (width 0) (type default) (color 0 0 0 0))
          (fill (type none))
        )
        (circle (center 2.032 -2.54) (radius 0.508)
          (stroke (width 0) (type default) (color 0 0 0 0))
          (fill (type none))
        )
      )
      (symbol "SW_SPDT_0_1"
        (polyline
          (pts
            (xy -1.524 0.254)
            (xy 1.651 2.286)
          )
          (stroke (width 0) (type default) (color 0 0 0 0))
          (fill (type none))
        )
        (circle (center 2.032 2.54) (radius 0.508)
          (stroke (width 0) (type default) (color 0 0 0 0))
          (fill (type none))
        )
      )
      (symbol "SW_SPDT_1_1"
        (pin passive line (at 5.08 2.54 180) (length 2.54)
          (name "A" (effects (font (size 1.27 1.27))))
          (number "1" (effects (font (size 1.27 1.27))))
        )
        (pin passive line (at -5.08 0 0) (length 2.54)
          (name "B" (effects (font (size 1.27 1.27))))
          (number "2" (effects (font (size 1.27 1.27))))
        )
        (pin passive line (at 5.08 -2.54 180) (length 2.54)
          (name "C" (effects (font (size 1.27 1.27))))
          (number "3" (effects (font (size 1.27 1.27))))
        )
      )
    )
    (symbol "Transistor_FET:BSS123" (pin_names hide) (in_bom yes) (on_board yes)
      (property "Reference" "Q" (id 0) (at 5.08 1.905 0)
        (effects (font (size 1.27 1.27)) (justify left))
      )
      (property "Value" "BSS123" (id 1) (at 5.08 0 0)
        (effects (font (size 1.27 1.27)) (justify left))
      )
      (property "Footprint" "Package_TO_SOT_SMD:SOT-23" (id 2) (at 5.08 -1.905 0)
        (effects (font (size 1.27 1.27) italic) (justify left) hide)
      )
      (property "Datasheet" "http://www.diodes.com/assets/Datasheets/ds30366.pdf" (id 3) (at 0 0 0)
        (effects (font (size 1.27 1.27)) (justify left) hide)
      )
      (property "ki_keywords" "N-Channel MOSFET" (id 4) (at 0 0 0)
        (effects (font (size 1.27 1.27)) hide)
      )
      (property "ki_description" "0.17A Id, 100V Vds, N-Channel MOSFET, SOT-23" (id 5) (at 0 0 0)
        (effects (font (size 1.27 1.27)) hide)
      )
      (property "ki_fp_filters" "SOT?23*" (id 6) (at 0 0 0)
        (effects (font (size 1.27 1.27)) hide)
      )
      (symbol "BSS123_0_1"
        (polyline
          (pts
            (xy 0.254 0)
            (xy -2.54 0)
          )
          (stroke (width 0) (type default) (color 0 0 0 0))
          (fill (type none))
        )
        (polyline
          (pts
            (xy 0.254 1.905)
            (xy 0.254 -1.905)
          )
          (stroke (width 0.254) (type default) (color 0 0 0 0))
          (fill (type none))
        )
        (polyline
          (pts
            (xy 0.762 -1.27)
            (xy 0.762 -2.286)
          )
          (stroke (width 0.254) (type default) (color 0 0 0 0))
          (fill (type none))
        )
        (polyline
          (pts
            (xy 0.762 0.508)
            (xy 0.762 -0.508)
          )
          (stroke (width 0.254) (type default) (color 0 0 0 0))
          (fill (type none))
        )
        (polyline
          (pts
            (xy 0.762 2.286)
            (xy 0.762 1.27)
          )
          (stroke (width 0.254) (type default) (color 0 0 0 0))
          (fill (type none))
        )
        (polyline
          (pts
            (xy 2.54 2.54)
            (xy 2.54 1.778)
          )
          (stroke (width 0) (type default) (color 0 0 0 0))
          (fill (type none))
        )
        (polyline
          (pts
            (xy 2.54 -2.54)
            (xy 2.54 0)
            (xy 0.762 0)
          )
          (stroke (width 0) (type default) (color 0 0 0 0))
          (fill (type none))
        )
        (polyline
          (pts
            (xy 0.762 -1.778)
            (xy 3.302 -1.778)
            (xy 3.302 1.778)
            (xy 0.762 1.778)
          )
          (stroke (width 0) (type default) (color 0 0 0 0))
          (fill (type none))
        )
        (polyline
          (pts
            (xy 1.016 0)
            (xy 2.032 0.381)
            (xy 2.032 -0.381)
            (xy 1.016 0)
          )
          (stroke (width 0) (type default) (color 0 0 0 0))
          (fill (type outline))
        )
        (polyline
          (pts
            (xy 2.794 0.508)
            (xy 2.921 0.381)
            (xy 3.683 0.381)
            (xy 3.81 0.254)
          )
          (stroke (width 0) (type default) (color 0 0 0 0))
          (fill (type none))
        )
        (polyline
          (pts
            (xy 3.302 0.381)
            (xy 2.921 -0.254)
            (xy 3.683 -0.254)
            (xy 3.302 0.381)
          )
          (stroke (width 0) (type default) (color 0 0 0 0))
          (fill (type none))
        )
        (circle (center 1.651 0) (radius 2.794)
          (stroke (width 0.254) (type default) (color 0 0 0 0))
          (fill (type none))
        )
        (circle (center 2.54 -1.778) (radius 0.254)
          (stroke (width 0) (type default) (color 0 0 0 0))
          (fill (type outline))
        )
        (circle (center 2.54 1.778) (radius 0.254)
          (stroke (width 0) (type default) (color 0 0 0 0))
          (fill (type outline))
        )
      )
      (symbol "BSS123_1_1"
        (pin input line (at -5.08 0 0) (length 2.54)
          (name "G" (effects (font (size 1.27 1.27))))
          (number "1" (effects (font (size 1.27 1.27))))
        )
        (pin passive line (at 2.54 -5.08 90) (length 2.54)
          (name "S" (effects (font (size 1.27 1.27))))
          (number "2" (effects (font (size 1.27 1.27))))
        )
        (pin passive line (at 2.54 5.08 270) (length 2.54)
          (name "D" (effects (font (size 1.27 1.27))))
          (number "3" (effects (font (size 1.27 1.27))))
        )
      )
    )
    (symbol "Transistor_FET:FDMS86255ET150" (pin_names hide) (in_bom yes) (on_board yes)
      (property "Reference" "Q" (id 0) (at 5.08 1.905 0)
        (effects (font (size 1.27 1.27)) (justify left))
      )
      (property "Value" "FDMS86255ET150" (id 1) (at 5.08 0 0)
        (effects (font (size 1.27 1.27)) (justify left))
      )
      (property "Footprint" "Package_TO_SOT_SMD:TDSON-8-1" (id 2) (at 5.08 -1.905 0)
        (effects (font (size 1.27 1.27) italic) (justify left) hide)
      )
      (property "Datasheet" "https://www.onsemi.com/pub/Collateral/FDMS86255ET150-D.pdf" (id 3) (at 0 0 90)
        (effects (font (size 1.27 1.27)) (justify left) hide)
      )
      (property "ki_keywords" "shielded-gate-powertrench MOSFET fairchild" (id 4) (at 0 0 0)
        (effects (font (size 1.27 1.27)) hide)
      )
      (property "ki_description" "10A Id, 150V Vds, N-Channel Shielded Gate PowerTrench MOSFET, 12.4mOhm Ron, 63nC Qgmax, -55 to 175 °C, 5x6mm SON8" (id 5) (at 0 0 0)
        (effects (font (size 1.27 1.27)) hide)
      )
      (property "ki_fp_filters" "TDSON*" (id 6) (at 0 0 0)
        (effects (font (size 1.27 1.27)) hide)
      )
      (symbol "FDMS86255ET150_0_1"
        (polyline
          (pts
            (xy 0.254 0)
            (xy -2.54 0)
          )
          (stroke (width 0) (type default) (color 0 0 0 0))
          (fill (type none))
        )
        (polyline
          (pts
            (xy 0.254 1.905)
            (xy 0.254 -1.905)
          )
          (stroke (width 0.254) (type default) (color 0 0 0 0))
          (fill (type none))
        )
        (polyline
          (pts
            (xy 0.762 -1.27)
            (xy 0.762 -2.286)
          )
          (stroke (width 0.254) (type default) (color 0 0 0 0))
          (fill (type none))
        )
        (polyline
          (pts
            (xy 0.762 0.508)
            (xy 0.762 -0.508)
          )
          (stroke (width 0.254) (type default) (color 0 0 0 0))
          (fill (type none))
        )
        (polyline
          (pts
            (xy 0.762 2.286)
            (xy 0.762 1.27)
          )
          (stroke (width 0.254) (type default) (color 0 0 0 0))
          (fill (type none))
        )
        (polyline
          (pts
            (xy 2.54 2.54)
            (xy 2.54 1.778)
          )
          (stroke (width 0) (type default) (color 0 0 0 0))
          (fill (type none))
        )
        (polyline
          (pts
            (xy 2.54 -2.54)
            (xy 2.54 0)
            (xy 0.762 0)
          )
          (stroke (width 0) (type default) (color 0 0 0 0))
          (fill (type none))
        )
        (polyline
          (pts
            (xy 0.762 -1.778)
            (xy 3.302 -1.778)
            (xy 3.302 1.778)
            (xy 0.762 1.778)
          )
          (stroke (width 0) (type default) (color 0 0 0 0))
          (fill (type none))
        )
        (polyline
          (pts
            (xy 1.016 0)
            (xy 2.032 0.381)
            (xy 2.032 -0.381)
            (xy 1.016 0)
          )
          (stroke (width 0) (type default) (color 0 0 0 0))
          (fill (type outline))
        )
        (polyline
          (pts
            (xy 2.794 0.508)
            (xy 2.921 0.381)
            (xy 3.683 0.381)
            (xy 3.81 0.254)
          )
          (stroke (width 0) (type default) (color 0 0 0 0))
          (fill (type none))
        )
        (polyline
          (pts
            (xy 3.302 0.381)
            (xy 2.921 -0.254)
            (xy 3.683 -0.254)
            (xy 3.302 0.381)
          )
          (stroke (width 0) (type default) (color 0 0 0 0))
          (fill (type none))
        )
        (circle (center 1.651 0) (radius 2.794)
          (stroke (width 0.254) (type default) (color 0 0 0 0))
          (fill (type none))
        )
        (circle (center 2.54 -1.778) (radius 0.254)
          (stroke (width 0) (type default) (color 0 0 0 0))
          (fill (type outline))
        )
        (circle (center 2.54 1.778) (radius 0.254)
          (stroke (width 0) (type default) (color 0 0 0 0))
          (fill (type outline))
        )
      )
      (symbol "FDMS86255ET150_1_1"
        (pin passive line (at 2.54 -5.08 90) (length 2.54)
          (name "S" (effects (font (size 1.27 1.27))))
          (number "1" (effects (font (size 1.27 1.27))))
        )
        (pin passive line (at 2.54 -5.08 90) (length 2.54) hide
          (name "S" (effects (font (size 1.27 1.27))))
          (number "2" (effects (font (size 1.27 1.27))))
        )
        (pin passive line (at 2.54 -5.08 90) (length 2.54) hide
          (name "S" (effects (font (size 1.27 1.27))))
          (number "3" (effects (font (size 1.27 1.27))))
        )
        (pin passive line (at -5.08 0 0) (length 2.54)
          (name "G" (effects (font (size 1.27 1.27))))
          (number "4" (effects (font (size 1.27 1.27))))
        )
        (pin passive line (at 2.54 5.08 270) (length 2.54)
          (name "D" (effects (font (size 1.27 1.27))))
          (number "5" (effects (font (size 1.27 1.27))))
        )
      )
    )
  )

  (junction (at 86.36 39.37) (diameter 0) (color 0 0 0 0)
    (uuid 098000a1-d82b-43bc-86bf-7a96d53c06d0)
  )
  (junction (at 102.87 39.37) (diameter 0) (color 0 0 0 0)
    (uuid 0a4c2604-cf1b-42f3-a109-e5b6a38607ac)
  )
  (junction (at 134.62 66.04) (diameter 0) (color 0 0 0 0)
    (uuid 0f305ae8-6edb-4a05-b74f-7c8487852349)
  )
  (junction (at 179.07 66.04) (diameter 0) (color 0 0 0 0)
    (uuid 14c85de4-6c59-4e20-8342-e290f7274293)
  )
  (junction (at 149.86 60.96) (diameter 0) (color 0 0 0 0)
    (uuid 16b43471-7cf9-416a-baa4-d9f7210408ae)
  )
  (junction (at 204.47 57.15) (diameter 0) (color 0 0 0 0)
    (uuid 17719223-a476-4044-93e9-3cdb5a2f55ba)
  )
  (junction (at 233.68 58.42) (diameter 0) (color 0 0 0 0)
    (uuid 26ba4bfc-95b5-45c5-a5af-e52abbb80011)
  )
  (junction (at 265.43 66.04) (diameter 0) (color 0 0 0 0)
    (uuid 2ac322ca-3348-4aa7-948c-11efdf1c6369)
  )
  (junction (at 223.52 66.04) (diameter 0) (color 0 0 0 0)
    (uuid 2acb3989-7ef9-4cd9-b065-0665afe9e627)
  )
  (junction (at 149.86 66.04) (diameter 0) (color 0 0 0 0)
    (uuid 31053271-5161-4078-a246-9768a87e2856)
  )
  (junction (at 66.04 66.04) (diameter 0) (color 0 0 0 0)
    (uuid 3215ca71-5825-48a7-ae6a-7fdc238257ed)
  )
  (junction (at 50.8 66.04) (diameter 0) (color 0 0 0 0)
    (uuid 3d5e2bf7-4add-42be-a90c-e55b8b5830b2)
  )
  (junction (at 149.86 39.37) (diameter 0) (color 0 0 0 0)
    (uuid 47812485-29e6-4d15-8a30-666ed796c6cc)
  )
  (junction (at 93.98 66.04) (diameter 0) (color 0 0 0 0)
    (uuid 4b9cb4cc-6519-4651-ba10-7835da2972f6)
  )
  (junction (at 50.8 39.37) (diameter 0) (color 0 0 0 0)
    (uuid 5ec0898a-35bc-456b-bc33-0b5c9d8fbc6e)
  )
  (junction (at 74.93 39.37) (diameter 0) (color 0 0 0 0)
    (uuid 6edbc1c0-1202-4bb7-9721-0fbcd3f99e6a)
  )
  (junction (at 265.43 39.37) (diameter 0) (color 0 0 0 0)
    (uuid 72ab0fcd-964f-4102-9fb4-992072208228)
  )
  (junction (at 66.04 39.37) (diameter 0) (color 0 0 0 0)
    (uuid 735644a8-5e08-4765-b172-0bd6f350a925)
  )
  (junction (at 96.52 57.15) (diameter 0) (color 0 0 0 0)
    (uuid 73fc6bc3-c87b-4bc3-aaa0-daef57e19125)
  )
  (junction (at 212.09 66.04) (diameter 0) (color 0 0 0 0)
    (uuid 769335b1-3450-458c-87ea-e275542e70fe)
  )
  (junction (at 34.29 66.04) (diameter 0) (color 0 0 0 0)
    (uuid 76a450d4-6073-491a-ac7c-ecd1e3af4081)
  )
  (junction (at 243.84 66.04) (diameter 0) (color 0 0 0 0)
    (uuid 87ddeab7-0698-4e30-add5-8cc2c787b76a)
  )
  (junction (at 129.54 66.04) (diameter 0) (color 0 0 0 0)
    (uuid 8e71f1f8-4b6d-4bdf-83f0-c9be312a14e7)
  )
  (junction (at 96.52 66.04) (diameter 0) (color 0 0 0 0)
    (uuid 8f9d8105-c6e6-494b-988a-7ff2d733a8e3)
  )
  (junction (at 227.33 39.37) (diameter 0) (color 0 0 0 0)
    (uuid 90a05516-a2ac-4e19-a3b0-32c54ff3c3ab)
  )
  (junction (at 201.93 57.15) (diameter 0) (color 0 0 0 0)
    (uuid 96330b1b-f609-436a-9bda-dc656c945858)
  )
  (junction (at 88.9 57.15) (diameter 0) (color 0 0 0 0)
    (uuid 995c5654-a01b-4590-8912-53bb7e43db3a)
  )
  (junction (at 74.93 66.04) (diameter 0) (color 0 0 0 0)
    (uuid b00161e6-da21-401a-922e-c09d7048217e)
  )
  (junction (at 233.68 39.37) (diameter 0) (color 0 0 0 0)
    (uuid b0739dba-6b96-4cdb-b930-7757647152ff)
  )
  (junction (at 179.07 43.18) (diameter 0) (color 0 0 0 0)
    (uuid b74eb9af-c4c5-469e-ab7d-830c1576cc22)
  )
  (junction (at 201.93 39.37) (diameter 0) (color 0 0 0 0)
    (uuid b94eca0d-e0af-4cfc-aa5f-536d20490d42)
  )
  (junction (at 233.68 50.8) (diameter 0) (color 0 0 0 0)
    (uuid bac551fb-ebba-461d-b2af-bedfb50d811b)
  )
  (junction (at 193.04 57.15) (diameter 0) (color 0 0 0 0)
    (uuid bb5537b7-8745-4e8c-9598-1687c5089ea0)
  )
  (junction (at 129.54 49.53) (diameter 0) (color 0 0 0 0)
    (uuid bb693489-5137-4538-83a0-0052d82b6741)
  )
  (junction (at 217.17 66.04) (diameter 0) (color 0 0 0 0)
    (uuid c4d57d38-0306-40a8-acda-a7e85b4717b9)
  )
  (junction (at 201.93 66.04) (diameter 0) (color 0 0 0 0)
    (uuid c9791208-4d2d-42d3-a91d-b1b95a73a84d)
  )
  (junction (at 171.45 54.61) (diameter 0) (color 0 0 0 0)
    (uuid ce1635ff-e7d1-40c8-92ef-0d260d2ead3b)
  )
  (junction (at 102.87 66.04) (diameter 0) (color 0 0 0 0)
    (uuid d2639f5e-7e8a-468f-9cea-140337ab6e59)
  )
  (junction (at 179.07 39.37) (diameter 0) (color 0 0 0 0)
    (uuid d5b1c63d-79dc-4189-a748-e7c39eddfb9c)
  )
  (junction (at 102.87 57.15) (diameter 0) (color 0 0 0 0)
    (uuid d64bc18c-af30-463b-ac8a-9217dc11ffe0)
  )
  (junction (at 243.84 39.37) (diameter 0) (color 0 0 0 0)
    (uuid dfd7927c-e911-496c-b577-c667a70ae94f)
  )
  (junction (at 134.62 54.61) (diameter 0) (color 0 0 0 0)
    (uuid e602bbb4-46fa-4414-9a03-98b9f0d40a5c)
  )
  (junction (at 34.29 39.37) (diameter 0) (color 0 0 0 0)
    (uuid e9c09004-c5b6-4279-ae3b-9d12e396a2da)
  )
  (junction (at 167.64 66.04) (diameter 0) (color 0 0 0 0)
    (uuid ef366791-ca42-47e3-b44e-3972f986e3de)
  )
  (junction (at 129.54 39.37) (diameter 0) (color 0 0 0 0)
    (uuid fdcc83a0-4f44-43e1-a42a-bc11ffce4c9d)
  )

  (wire (pts (xy 227.33 30.48) (xy 227.33 39.37))
    (stroke (width 0) (type default) (color 0 0 0 0))
    (uuid 008d0300-0195-46bf-861e-d3d4c5a523b6)
  )
  (wire (pts (xy 50.8 52.07) (xy 50.8 53.34))
    (stroke (width 0) (type default) (color 0 0 0 0))
    (uuid 03884672-c615-4dd2-9f80-cfd42f112a8b)
  )
  (wire (pts (xy 233.68 39.37) (xy 233.68 43.18))
    (stroke (width 0) (type default) (color 0 0 0 0))
    (uuid 0495e8cd-ef76-4697-a5e8-5fba41c1dd3d)
  )
  (wire (pts (xy 210.82 53.34) (xy 210.82 36.83))
    (stroke (width 0) (type default) (color 0 0 0 0))
    (uuid 094b2ee1-e5b0-4315-ac67-68e9c9fd0205)
  )
  (wire (pts (xy 205.74 36.83) (xy 205.74 30.48))
    (stroke (width 0) (type default) (color 0 0 0 0))
    (uuid 0c868c0c-c171-49c8-ad47-46fbe9f0db75)
  )
  (wire (pts (xy 50.8 64.77) (xy 50.8 66.04))
    (stroke (width 0) (type default) (color 0 0 0 0))
    (uuid 0c8c1e34-cfdf-4ab4-96b7-fc96126f8c6c)
  )
  (wire (pts (xy 265.43 60.96) (xy 265.43 66.04))
    (stroke (width 0) (type default) (color 0 0 0 0))
    (uuid 11484b95-7845-408b-8dc7-c8a5abb3a5c2)
  )
  (wire (pts (xy 179.07 66.04) (xy 201.93 66.04))
    (stroke (width 0) (type default) (color 0 0 0 0))
    (uuid 115a0a36-9476-45c9-9515-a7dd04ca033b)
  )
  (wire (pts (xy 102.87 64.77) (xy 102.87 66.04))
    (stroke (width 0) (type default) (color 0 0 0 0))
    (uuid 138c87f2-8051-44e5-b015-9315438a65a2)
  )
  (wire (pts (xy 149.86 39.37) (xy 179.07 39.37))
    (stroke (width 0) (type default) (color 0 0 0 0))
    (uuid 14bf31b0-541a-4d8c-9fab-ef82fab703e0)
  )
  (wire (pts (xy 243.84 39.37) (xy 243.84 49.53))
    (stroke (width 0) (type default) (color 0 0 0 0))
    (uuid 1528add1-bbe2-4b7b-aa86-ea837f1cf636)
  )
  (wire (pts (xy 201.93 39.37) (xy 201.93 46.99))
    (stroke (width 0) (type default) (color 0 0 0 0))
    (uuid 15bca5ff-78f6-4931-95d5-3e0e5bc0aca3)
  )
  (wire (pts (xy 201.93 66.04) (xy 212.09 66.04))
    (stroke (width 0) (type default) (color 0 0 0 0))
    (uuid 16c53d4c-6a5b-43f4-bec2-0c7f7312dd7c)
  )
  (wire (pts (xy 74.93 39.37) (xy 74.93 49.53))
    (stroke (width 0) (type default) (color 0 0 0 0))
    (uuid 1afbef4c-62ed-43b7-a5d7-117b03478b92)
  )
  (wire (pts (xy 129.54 66.04) (xy 134.62 66.04))
    (stroke (width 0) (type default) (color 0 0 0 0))
    (uuid 1b98960b-a45c-4145-9e10-79b76a04b1cc)
  )
  (wire (pts (xy 88.9 57.15) (xy 96.52 57.15))
    (stroke (width 0) (type default) (color 0 0 0 0))
    (uuid 1bca94d9-850d-4a2d-b1c6-abc870a280cc)
  )
  (wire (pts (xy 193.04 57.15) (xy 195.58 57.15))
    (stroke (width 0) (type default) (color 0 0 0 0))
    (uuid 1d78782c-56d8-485c-b9d7-62725c8d6bb2)
  )
  (wire (pts (xy 129.54 39.37) (xy 129.54 41.91))
    (stroke (width 0) (type default) (color 0 0 0 0))
    (uuid 2063ff63-357a-4243-8760-c53cedb8b190)
  )
  (wire (pts (xy 66.04 54.61) (xy 66.04 66.04))
    (stroke (width 0) (type default) (color 0 0 0 0))
    (uuid 24c2b7af-e57b-47e9-aa04-49e5a11c3eb1)
  )
  (wire (pts (xy 134.62 66.04) (xy 149.86 66.04))
    (stroke (width 0) (type default) (color 0 0 0 0))
    (uuid 26cb8e93-b480-48ba-8806-0c01705dadd5)
  )
  (wire (pts (xy 227.33 17.78) (xy 227.33 25.4))
    (stroke (width 0) (type default) (color 0 0 0 0))
    (uuid 2794319e-9c58-4b5b-ac4b-08ef401f74a4)
  )
  (wire (pts (xy 93.98 40.64) (xy 93.98 66.04))
    (stroke (width 0) (type default) (color 0 0 0 0))
    (uuid 2a3cfa98-99fb-4866-b4f4-a627441fa31b)
  )
  (wire (pts (xy 212.09 50.8) (xy 212.09 52.07))
    (stroke (width 0) (type default) (color 0 0 0 0))
    (uuid 2fc508a0-7eb0-474d-8099-ed51e27c06a3)
  )
  (polyline (pts (xy 80.01 20.32) (xy 80.01 81.28))
    (stroke (width 0) (type default) (color 0 0 0 0))
    (uuid 31b28156-1af9-48fd-ba89-8a1130c2ba65)
  )

  (wire (pts (xy 34.29 66.04) (xy 50.8 66.04))
    (stroke (width 0) (type default) (color 0 0 0 0))
    (uuid 3bd3229a-f9c5-4513-a196-bb77af75df47)
  )
  (wire (pts (xy 201.93 52.07) (xy 201.93 57.15))
    (stroke (width 0) (type default) (color 0 0 0 0))
    (uuid 3f31be4e-7f24-4d9e-a5cf-c9882cf8da3f)
  )
  (wire (pts (xy 102.87 66.04) (xy 129.54 66.04))
    (stroke (width 0) (type default) (color 0 0 0 0))
    (uuid 40eafdbb-80ca-4969-9b23-3fc5ebfd8436)
  )
  (wire (pts (xy 149.86 39.37) (xy 149.86 55.88))
    (stroke (width 0) (type default) (color 0 0 0 0))
    (uuid 42fa3193-0dbd-4ae6-84fb-a5e5173c5090)
  )
  (wire (pts (xy 74.93 54.61) (xy 74.93 66.04))
    (stroke (width 0) (type default) (color 0 0 0 0))
    (uuid 4465301b-a248-451c-878c-0930de6397cb)
  )
  (wire (pts (xy 167.64 52.07) (xy 167.64 66.04))
    (stroke (width 0) (type default) (color 0 0 0 0))
    (uuid 46c9d85f-2ac1-40a6-9613-fe2cf177b837)
  )
  (wire (pts (xy 163.83 59.69) (xy 173.99 59.69))
    (stroke (width 0) (type default) (color 0 0 0 0))
    (uuid 480d7067-10d1-4eb0-a729-e843fe3ae9f0)
  )
  (wire (pts (xy 93.98 66.04) (xy 96.52 66.04))
    (stroke (width 0) (type default) (color 0 0 0 0))
    (uuid 4a329f18-f421-43ef-921f-9608717153ed)
  )
  (wire (pts (xy 193.04 46.99) (xy 193.04 57.15))
    (stroke (width 0) (type default) (color 0 0 0 0))
    (uuid 4acdc93a-2bbe-45f8-b34e-d9a4e435e9a0)
  )
  (wire (pts (xy 34.29 39.37) (xy 50.8 39.37))
    (stroke (width 0) (type default) (color 0 0 0 0))
    (uuid 4b39672f-0026-4222-962b-6f893051bd52)
  )
  (wire (pts (xy 102.87 57.15) (xy 96.52 57.15))
    (stroke (width 0) (type default) (color 0 0 0 0))
    (uuid 4e01225d-51aa-4b0b-ba01-858cc58783d3)
  )
  (wire (pts (xy 102.87 52.07) (xy 102.87 57.15))
    (stroke (width 0) (type default) (color 0 0 0 0))
    (uuid 4f34db5f-8a22-4f36-860e-33b34b7bbf63)
  )
  (polyline (pts (xy 26.67 20.32) (xy 80.01 20.32))
    (stroke (width 0) (type default) (color 0 0 0 0))
    (uuid 53be25d0-caae-4581-82e8-975e322bd8f4)
  )

  (wire (pts (xy 223.52 58.42) (xy 233.68 58.42))
    (stroke (width 0) (type default) (color 0 0 0 0))
    (uuid 57f8180d-e0c5-4dee-ac30-2a57e7e9282c)
  )
  (wire (pts (xy 50.8 39.37) (xy 50.8 44.45))
    (stroke (width 0) (type default) (color 0 0 0 0))
    (uuid 58c99ad9-a179-44cd-ac0a-9c99ccabff73)
  )
  (polyline (pts (xy 110.49 81.28) (xy 256.54 81.28))
    (stroke (width 0) (type default) (color 0 0 0 0))
    (uuid 595d2c21-56ed-41c3-87f9-27dea6f1f0eb)
  )

  (wire (pts (xy 217.17 46.99) (xy 217.17 66.04))
    (stroke (width 0) (type default) (color 0 0 0 0))
    (uuid 5ea0abc8-28ea-4556-9b97-a15dab4f6639)
  )
  (wire (pts (xy 129.54 60.96) (xy 129.54 66.04))
    (stroke (width 0) (type default) (color 0 0 0 0))
    (uuid 5f59f47d-1a0b-4dd6-8e7d-6d5b50ab2a48)
  )
  (wire (pts (xy 193.04 57.15) (xy 189.23 57.15))
    (stroke (width 0) (type default) (color 0 0 0 0))
    (uuid 61f9f888-f021-4a08-b34d-53ae35473d0c)
  )
  (wire (pts (xy 243.84 54.61) (xy 243.84 66.04))
    (stroke (width 0) (type default) (color 0 0 0 0))
    (uuid 62d6420a-74a0-4fd1-9ccb-1030b0fa4484)
  )
  (wire (pts (xy 129.54 39.37) (xy 149.86 39.37))
    (stroke (width 0) (type default) (color 0 0 0 0))
    (uuid 630ec67c-dde1-4bb8-9950-f752439bf30a)
  )
  (wire (pts (xy 50.8 58.42) (xy 50.8 59.69))
    (stroke (width 0) (type default) (color 0 0 0 0))
    (uuid 6e048632-3deb-4ed5-bebb-ed59a00ff731)
  )
  (wire (pts (xy 233.68 58.42) (xy 233.68 50.8))
    (stroke (width 0) (type default) (color 0 0 0 0))
    (uuid 73893d87-fa10-45fd-9da4-9dd76d11cffc)
  )
  (polyline (pts (xy 80.01 81.28) (xy 110.49 81.28))
    (stroke (width 0) (type default) (color 0 0 0 0))
    (uuid 75843873-1b55-45a1-8a8e-00891af78997)
  )
  (polyline (pts (xy 26.67 81.28) (xy 80.01 81.28))
    (stroke (width 0) (type default) (color 0 0 0 0))
    (uuid 75c1028b-0d2e-459a-b5fa-389ad8f2ed4d)
  )

  (wire (pts (xy 22.86 66.04) (xy 34.29 66.04))
    (stroke (width 0) (type default) (color 0 0 0 0))
    (uuid 76a5d1de-dda5-48ba-aae5-54a5c79264bf)
  )
  (wire (pts (xy 129.54 49.53) (xy 134.62 49.53))
    (stroke (width 0) (type default) (color 0 0 0 0))
    (uuid 7ad7d0a4-e12f-49ce-b128-4938c7461477)
  )
  (wire (pts (xy 217.17 66.04) (xy 223.52 66.04))
    (stroke (width 0) (type default) (color 0 0 0 0))
    (uuid 7c18c909-5c4a-4ef6-850a-1c0a360917a4)
  )
  (wire (pts (xy 96.52 66.04) (xy 102.87 66.04))
    (stroke (width 0) (type default) (color 0 0 0 0))
    (uuid 7c8211dc-37a3-4f36-8fe5-4784efc7ea48)
  )
  (wire (pts (xy 204.47 53.34) (xy 210.82 53.34))
    (stroke (width 0) (type default) (color 0 0 0 0))
    (uuid 7cdf5048-14ab-43eb-a383-58ca96a9136d)
  )
  (wire (pts (xy 201.93 57.15) (xy 204.47 57.15))
    (stroke (width 0) (type default) (color 0 0 0 0))
    (uuid 813c55d4-ec7e-43ce-9488-34745abfd6ba)
  )
  (wire (pts (xy 179.07 43.18) (xy 179.07 49.53))
    (stroke (width 0) (type default) (color 0 0 0 0))
    (uuid 82c7dd5e-433a-40d9-9a6f-d8019250e632)
  )
  (wire (pts (xy 213.36 35.56) (xy 213.36 46.99))
    (stroke (width 0) (type default) (color 0 0 0 0))
    (uuid 8333f6a0-8771-4956-b71c-94f6fa49f261)
  )
  (wire (pts (xy 134.62 54.61) (xy 171.45 54.61))
    (stroke (width 0) (type default) (color 0 0 0 0))
    (uuid 8407028e-472e-4217-9c51-1bbb5ee72640)
  )
  (polyline (pts (xy 110.49 20.32) (xy 256.54 20.32))
    (stroke (width 0) (type default) (color 0 0 0 0))
    (uuid 890ccb0d-9283-4cdb-b58b-80fde9deed47)
  )

  (wire (pts (xy 212.09 50.8) (xy 233.68 50.8))
    (stroke (width 0) (type default) (color 0 0 0 0))
    (uuid 89530158-478b-42f9-8669-544b1bd2b98e)
  )
  (wire (pts (xy 238.76 66.04) (xy 243.84 66.04))
    (stroke (width 0) (type default) (color 0 0 0 0))
    (uuid 8961e343-925a-4403-8b25-ab0abc63003c)
  )
  (wire (pts (xy 34.29 39.37) (xy 34.29 48.26))
    (stroke (width 0) (type default) (color 0 0 0 0))
    (uuid 8aa7e604-d3b6-44c4-a8ab-23ddab4a5c50)
  )
  (wire (pts (xy 171.45 46.99) (xy 171.45 54.61))
    (stroke (width 0) (type default) (color 0 0 0 0))
    (uuid 8c1ab03e-5136-4d6f-99f7-2413e8b5ad41)
  )
  (wire (pts (xy 102.87 59.69) (xy 102.87 57.15))
    (stroke (width 0) (type default) (color 0 0 0 0))
    (uuid 8d6919dd-a10f-46d8-ab24-f908e8737b57)
  )
  (wire (pts (xy 233.68 39.37) (xy 243.84 39.37))
    (stroke (width 0) (type default) (color 0 0 0 0))
    (uuid 8fb10af1-e272-430b-85df-17f48a75323a)
  )
  (wire (pts (xy 167.64 46.99) (xy 167.64 43.18))
    (stroke (width 0) (type default) (color 0 0 0 0))
    (uuid 9122e35e-221b-41aa-a358-16a131cebe0d)
  )
  (wire (pts (xy 129.54 46.99) (xy 129.54 49.53))
    (stroke (width 0) (type default) (color 0 0 0 0))
    (uuid 91585506-7b66-4ac0-90c5-a4e44b76d51a)
  )
  (polyline (pts (xy 110.49 81.28) (xy 110.49 20.32))
    (stroke (width 0) (type default) (color 0 0 0 0))
    (uuid 986d4f10-4fcb-4592-8f83-b3d2452ec4b6)
  )

  (wire (pts (xy 50.8 66.04) (xy 66.04 66.04))
    (stroke (width 0) (type default) (color 0 0 0 0))
    (uuid 9a204065-cc85-4f50-84ed-80bf6098366c)
  )
  (wire (pts (xy 265.43 66.04) (xy 273.05 66.04))
    (stroke (width 0) (type default) (color 0 0 0 0))
    (uuid 9afd2e0d-2165-4729-a344-81bee1c9c8af)
  )
  (wire (pts (xy 201.93 57.15) (xy 201.93 58.42))
    (stroke (width 0) (type default) (color 0 0 0 0))
    (uuid 9b8e0ad4-7f24-4fa5-93e4-c0c9f2a04882)
  )
  (wire (pts (xy 265.43 39.37) (xy 265.43 44.45))
    (stroke (width 0) (type default) (color 0 0 0 0))
    (uuid 9df940c9-cfc1-45a2-92a8-4a979b497b9f)
  )
  (wire (pts (xy 134.62 59.69) (xy 134.62 66.04))
    (stroke (width 0) (type default) (color 0 0 0 0))
    (uuid a2b2eaf3-db06-446b-9751-d288ac591b62)
  )
  (polyline (pts (xy 80.01 20.32) (xy 110.49 20.32))
    (stroke (width 0) (type default) (color 0 0 0 0))
    (uuid a5c7bba3-9197-4cd8-8fe8-f10ab4bda90e)
  )

  (wire (pts (xy 88.9 55.88) (xy 88.9 57.15))
    (stroke (width 0) (type default) (color 0 0 0 0))
    (uuid a7896fb1-64cd-4f60-a300-06b750a01bc6)
  )
  (wire (pts (xy 50.8 39.37) (xy 66.04 39.37))
    (stroke (width 0) (type default) (color 0 0 0 0))
    (uuid adcefd3e-fc6c-46e2-9c5f-2e44085c4809)
  )
  (wire (pts (xy 21.59 39.37) (xy 26.67 39.37))
    (stroke (width 0) (type default) (color 0 0 0 0))
    (uuid b08c83b5-4ae9-49f5-86ae-8ba8998ce761)
  )
  (polyline (pts (xy 26.67 20.32) (xy 26.67 81.28))
    (stroke (width 0) (type default) (color 0 0 0 0))
    (uuid b18bf6c3-5181-4bc4-adac-b72f92a3ff0e)
  )

  (wire (pts (xy 86.36 39.37) (xy 86.36 40.64))
    (stroke (width 0) (type default) (color 0 0 0 0))
    (uuid b37709d5-27da-42d7-a0fe-f5673564106a)
  )
  (wire (pts (xy 179.07 39.37) (xy 179.07 43.18))
    (stroke (width 0) (type default) (color 0 0 0 0))
    (uuid b42bf687-7e25-4024-bd72-2bfc26126a2d)
  )
  (wire (pts (xy 129.54 49.53) (xy 129.54 53.34))
    (stroke (width 0) (type default) (color 0 0 0 0))
    (uuid b5fe5c1a-6050-42c0-be8c-24baec76b09b)
  )
  (polyline (pts (xy 110.49 20.32) (xy 110.49 81.28))
    (stroke (width 0) (type default) (color 0 0 0 0))
    (uuid be620611-3150-4fc1-a691-b1df98a11684)
  )

  (wire (pts (xy 265.43 49.53) (xy 265.43 53.34))
    (stroke (width 0) (type default) (color 0 0 0 0))
    (uuid c0c6858a-add0-4bf2-8253-407b00a375d1)
  )
  (polyline (pts (xy 80.01 81.28) (xy 80.01 20.32))
    (stroke (width 0) (type default) (color 0 0 0 0))
    (uuid c28eb4eb-5f14-47a0-92fe-2c29a8f55e5b)
  )

  (wire (pts (xy 102.87 39.37) (xy 129.54 39.37))
    (stroke (width 0) (type default) (color 0 0 0 0))
    (uuid c409aa1b-403f-4387-8bcc-399241edd0a6)
  )
  (wire (pts (xy 102.87 39.37) (xy 102.87 46.99))
    (stroke (width 0) (type default) (color 0 0 0 0))
    (uuid c4dd098f-d876-4d2a-ba3a-a4abd0514196)
  )
  (polyline (pts (xy 256.54 81.28) (xy 256.54 20.32))
    (stroke (width 0) (type default) (color 0 0 0 0))
    (uuid c75fefa9-8816-409d-8592-0178921f2d16)
  )

  (wire (pts (xy 66.04 39.37) (xy 74.93 39.37))
    (stroke (width 0) (type default) (color 0 0 0 0))
    (uuid c9269c56-4014-4574-9752-4206303cc2b6)
  )
  (wire (pts (xy 201.93 39.37) (xy 227.33 39.37))
    (stroke (width 0) (type default) (color 0 0 0 0))
    (uuid cdd17f07-fcf8-4082-a785-8a06785fbc3e)
  )
  (wire (pts (xy 163.83 60.96) (xy 163.83 59.69))
    (stroke (width 0) (type default) (color 0 0 0 0))
    (uuid cfc75c1b-38fd-4c1d-b3aa-e4fdc428b53e)
  )
  (wire (pts (xy 149.86 60.96) (xy 163.83 60.96))
    (stroke (width 0) (type default) (color 0 0 0 0))
    (uuid d258d2d6-7358-414a-98c2-12f2349343ae)
  )
  (wire (pts (xy 212.09 66.04) (xy 217.17 66.04))
    (stroke (width 0) (type default) (color 0 0 0 0))
    (uuid d4c16792-9fc6-43d2-8794-fc2d96de0f58)
  )
  (wire (pts (xy 74.93 39.37) (xy 86.36 39.37))
    (stroke (width 0) (type default) (color 0 0 0 0))
    (uuid d8b4cfb6-ff31-42af-a020-670a4d2ca48b)
  )
  (wire (pts (xy 74.93 66.04) (xy 83.82 66.04))
    (stroke (width 0) (type default) (color 0 0 0 0))
    (uuid da5c65ee-dc69-4486-99aa-0b6476e677d8)
  )
  (wire (pts (xy 200.66 57.15) (xy 201.93 57.15))
    (stroke (width 0) (type default) (color 0 0 0 0))
    (uuid dd636447-253d-4a56-a58a-d49b529709f3)
  )
  (wire (pts (xy 179.07 39.37) (xy 201.93 39.37))
    (stroke (width 0) (type default) (color 0 0 0 0))
    (uuid e20d0079-9215-4085-bdcb-a92756238338)
  )
  (wire (pts (xy 86.36 39.37) (xy 102.87 39.37))
    (stroke (width 0) (type default) (color 0 0 0 0))
    (uuid e4d74769-0c66-45b4-9d1e-88d0ac753442)
  )
  (wire (pts (xy 213.36 46.99) (xy 217.17 46.99))
    (stroke (width 0) (type default) (color 0 0 0 0))
    (uuid e5b96687-6035-4e72-81e9-40a8bbdd4864)
  )
  (wire (pts (xy 265.43 39.37) (xy 273.05 39.37))
    (stroke (width 0) (type default) (color 0 0 0 0))
    (uuid e7cba975-7363-41ad-ace2-c197aa837518)
  )
  (wire (pts (xy 149.86 66.04) (xy 167.64 66.04))
    (stroke (width 0) (type default) (color 0 0 0 0))
    (uuid eb7d831c-c542-4b76-a64b-35bb2a09f8ad)
  )
  (wire (pts (xy 213.36 17.78) (xy 227.33 17.78))
    (stroke (width 0) (type default) (color 0 0 0 0))
    (uuid ebd15458-5097-46c2-b786-97ff47f3f290)
  )
  (wire (pts (xy 181.61 46.99) (xy 171.45 46.99))
    (stroke (width 0) (type default) (color 0 0 0 0))
    (uuid ec489c8c-5f41-49cc-8c30-b7596a6db459)
  )
  (wire (pts (xy 210.82 36.83) (xy 205.74 36.83))
    (stroke (width 0) (type default) (color 0 0 0 0))
    (uuid ed1c101c-0650-450c-9970-4b7336f6680a)
  )
  (wire (pts (xy 66.04 39.37) (xy 66.04 49.53))
    (stroke (width 0) (type default) (color 0 0 0 0))
    (uuid ef5cc5b1-76e3-46e4-876f-1a8dd6163657)
  )
  (wire (pts (xy 186.69 46.99) (xy 193.04 46.99))
    (stroke (width 0) (type default) (color 0 0 0 0))
    (uuid efdc952b-87a7-4ee0-8ae8-390e07e0ff48)
  )
  (wire (pts (xy 243.84 66.04) (xy 265.43 66.04))
    (stroke (width 0) (type default) (color 0 0 0 0))
    (uuid f05f42ee-9b7c-4ca0-8be6-6159e4afd579)
  )
  (wire (pts (xy 223.52 66.04) (xy 228.6 66.04))
    (stroke (width 0) (type default) (color 0 0 0 0))
    (uuid f0d24d58-71ad-4262-967a-1e4b05f0013a)
  )
  (wire (pts (xy 233.68 50.8) (xy 233.68 48.26))
    (stroke (width 0) (type default) (color 0 0 0 0))
    (uuid f1d0ff9b-91f6-478e-975a-115479bd011e)
  )
  (wire (pts (xy 227.33 39.37) (xy 233.68 39.37))
    (stroke (width 0) (type default) (color 0 0 0 0))
    (uuid f1dfa37e-d396-4c5b-8e2a-bcbc616ba517)
  )
  (wire (pts (xy 204.47 57.15) (xy 204.47 53.34))
    (stroke (width 0) (type default) (color 0 0 0 0))
    (uuid f43405af-0f77-4f6c-b2c8-23f96120cc3c)
  )
  (wire (pts (xy 88.9 57.15) (xy 88.9 58.42))
    (stroke (width 0) (type default) (color 0 0 0 0))
    (uuid f438359e-074c-41ca-bd71-3466f0cab28d)
  )
  (wire (pts (xy 179.07 64.77) (xy 179.07 66.04))
    (stroke (width 0) (type default) (color 0 0 0 0))
    (uuid f5ee1e2e-1c7e-442a-b594-f15b2f199d6e)
  )
  (wire (pts (xy 167.64 66.04) (xy 179.07 66.04))
    (stroke (width 0) (type default) (color 0 0 0 0))
    (uuid f7ed8a60-a774-41c2-8658-0f31b13ae47e)
  )
  (wire (pts (xy 167.64 43.18) (xy 179.07 43.18))
    (stroke (width 0) (type default) (color 0 0 0 0))
    (uuid f8ca73d3-ec8f-413f-b626-302c790f6539)
  )
  (wire (pts (xy 243.84 39.37) (xy 265.43 39.37))
    (stroke (width 0) (type default) (color 0 0 0 0))
    (uuid f9ce367d-ca38-4070-a8cc-31ffaa1532c7)
  )
  (wire (pts (xy 91.44 40.64) (xy 93.98 40.64))
    (stroke (width 0) (type default) (color 0 0 0 0))
    (uuid fbbb2e45-7989-44e7-88b6-dbec88ccdcfe)
  )
  (wire (pts (xy 34.29 55.88) (xy 34.29 66.04))
    (stroke (width 0) (type default) (color 0 0 0 0))
    (uuid fca96635-6c2d-4d80-95dc-5bcbdf81ed51)
  )
  (wire (pts (xy 96.52 57.15) (xy 96.52 58.42))
    (stroke (width 0) (type default) (color 0 0 0 0))
    (uuid fd06f74b-1a6e-44b0-a3ab-64de845e94f3)
  )
  (wire (pts (xy 66.04 66.04) (xy 74.93 66.04))
    (stroke (width 0) (type default) (color 0 0 0 0))
    (uuid fd75b7a6-c2a8-4a01-b304-28c67617457b)
  )
  (wire (pts (xy 171.45 54.61) (xy 173.99 54.61))
    (stroke (width 0) (type default) (color 0 0 0 0))
    (uuid fe04393e-6fc3-4627-8b61-ef9f3ad7c0cb)
  )
  (wire (pts (xy 212.09 62.23) (xy 212.09 66.04))
    (stroke (width 0) (type default) (color 0 0 0 0))
    (uuid fe750aec-d7e3-475b-89d1-622b48b997e4)
  )

  (text "SPICE" (at 121.92 62.23 0)
    (effects (font (size 1.27 1.27)) (justify left bottom))
    (uuid 32478453-a055-4149-b06a-0361a9418482)
  )
  (text "UVLO" (at 153.67 78.74 0)
    (effects (font (size 2 2) (thickness 0.254) bold) (justify left bottom))
    (uuid 57e19e9d-ece6-49d9-b5e8-7afb2624590d)
  )
  (text "Fuse+TVS" (at 33.02 81.28 0)
    (effects (font (size 2 2) (thickness 0.254) bold) (justify left bottom))
    (uuid 68e54202-351b-435f-9439-b8e60b9750f3)
  )
  (text "20mW" (at 104.14 54.61 0)
    (effects (font (size 1.27 1.27)) (justify left bottom))
    (uuid 68e75fa9-dfae-4211-856a-3e6a715ae680)
  )
  (text "High when UVLO" (at 189.23 59.69 0)
    (effects (font (size 0.8 0.8)) (justify left bottom))
    (uuid 7970b45c-ea83-4d00-aafd-836109705003)
  )
  (text "UVLO = 2.75V/cell falling, 2.9V/cell rising" (at 130.81 36.83 0)
    (effects (font (size 1.27 1.27)) (justify left bottom))
    (uuid 7c9332f2-d5bb-4eab-b491-95356cb13234)
  )
  (text "RPP" (at 95.25 80.01 0)
    (effects (font (size 2 2) (thickness 0.254) bold) (justify left bottom))
    (uuid 8cda47d5-0f62-461c-a279-ebc9ae19a07a)
  )
  (text "Or BSC014N04LSATMA1" (at 85.09 95.25 0)
    (effects (font (size 1.27 1.27)) (justify left bottom))
    (uuid a0cc8a52-0418-4a25-83be-31b11abfc4b9)
  )
  (text "SPICE" (at 58.42 45.72 0)
    (effects (font (size 1.27 1.27)) (justify left bottom))
    (uuid a2123966-7056-49d1-9789-a580bd50497c)
  )
  (text "200mW" (at 231.14 77.47 0)
    (effects (font (size 1.27 1.27)) (justify left bottom))
    (uuid a516f448-b8ae-4b1e-a29b-d59b87654dbf)
  )
  (text "200mW" (at 82.55 77.47 0)
    (effects (font (size 1.27 1.27)) (justify left bottom))
    (uuid cf00c79d-eb7e-4249-a19d-7c2d3537b462)
  )
  (text "SPICE" (at 187.96 63.5 0)
    (effects (font (size 1.27 1.27)) (justify left bottom))
    (uuid e6903884-02dd-4359-8da3-b843561a9ed9)
  )
  (text "SPICE" (at 43.18 69.85 0)
    (effects (font (size 1.27 1.27)) (justify left bottom))
    (uuid f7625317-c4ba-4a00-b15c-88f9d4d07719)
  )

  (label "RPP_GND" (at 138.43 66.04 0)
    (effects (font (size 1.27 1.27)) (justify left bottom))
    (uuid 90d04b11-e8a3-421f-86ef-d9978d6a16c2)
  )

  (hierarchical_label "OUT+" (shape output) (at 273.05 39.37 0)
    (effects (font (size 1.27 1.27)) (justify left))
    (uuid 14842844-1468-4e25-b731-b725267328a8)
  )
  (hierarchical_label "BAT-" (shape input) (at 22.86 66.04 180)
    (effects (font (size 1.27 1.27)) (justify right))
    (uuid 14b5229a-8166-4b33-8441-3e7a59ab3337)
  )
  (hierarchical_label "OUT-" (shape output) (at 273.05 66.04 0)
    (effects (font (size 1.27 1.27)) (justify left))
    (uuid 3c766118-7e0b-487a-845e-b46f2198fa80)
  )
  (hierarchical_label "BAT+" (shape input) (at 21.59 39.37 180)
    (effects (font (size 1.27 1.27)) (justify right))
    (uuid a9bcc890-fe7f-47f9-b195-6b20abc912e7)
  )

  (symbol (lib_id "Device:D_Zener") (at 201.93 62.23 270) (unit 1)
    (in_bom yes) (on_board yes)
    (uuid 003e2d41-3a59-4395-a719-1b3a374a3a68)
    (property "Reference" "D10" (id 0) (at 204.47 60.96 90)
      (effects (font (size 1.27 1.27)) (justify left))
    )
    (property "Value" "12v" (id 1) (at 204.47 63.5 90)
      (effects (font (size 1.27 1.27)) (justify left))
    )
    (property "Footprint" "Diode_SMD:D_SOD-123F" (id 2) (at 201.93 62.23 0)
      (effects (font (size 1.27 1.27)) hide)
    )
    (property "Datasheet" "~" (id 3) (at 201.93 62.23 0)
      (effects (font (size 1.27 1.27)) hide)
    )
    (property "P/N" "NZH12B,115" (id 4) (at 201.93 67.31 90)
      (effects (font (size 0.635 0.635)))
    )
    (pin "1" (uuid ed1f6268-5263-4a6d-a7e6-d2332c053171))
    (pin "2" (uuid 2116451c-bb38-423e-a487-0557748214b8))
  )

  (symbol (lib_id "Switch:SW_SPDT") (at 88.9 45.72 90) (unit 1)
    (in_bom yes) (on_board yes)
    (uuid 029b1be7-2b7e-411f-a7e9-7a064f80b0e9)
    (property "Reference" "SW3" (id 0) (at 90.17 44.4499 90)
      (effects (font (size 1.27 1.27)) (justify right))
    )
    (property "Value" "POWER" (id 1) (at 90.17 46.9899 90)
      (effects (font (size 1.27 1.27)) (justify right))
    )
    (property "Footprint" "Button_Switch_THT:SW_Slide_1P2T_CK_OS102011MS2Q" (id 2) (at 88.9 45.72 0)
      (effects (font (size 1.27 1.27)) hide)
    )
    (property "Datasheet" "~" (id 3) (at 88.9 45.72 0)
      (effects (font (size 1.27 1.27)) hide)
    )
    (pin "1" (uuid c4a9d70f-4535-457e-83a2-a5a6ca5903ff))
    (pin "2" (uuid 837b585c-65ad-4d4f-ab74-bf8eff735c04))
    (pin "3" (uuid 83ff785c-ea92-4ef4-b576-8a84c348eb4c))
  )

  (symbol (lib_id "Transistor_FET:BSS123") (at 209.55 57.15 0) (unit 1)
    (in_bom yes) (on_board yes) (fields_autoplaced)
    (uuid 0794bf2a-4157-49dd-bede-36b7e31b5065)
    (property "Reference" "Q10" (id 0) (at 215.9 55.8799 0)
      (effects (font (size 1.27 1.27)) (justify left))
    )
    (property "Value" "BSS123" (id 1) (at 215.9 58.4199 0)
      (effects (font (size 1.27 1.27)) (justify left))
    )
    (property "Footprint" "Package_TO_SOT_SMD:SOT-23" (id 2) (at 214.63 59.055 0)
      (effects (font (size 1.27 1.27) italic) (justify left) hide)
    )
    (property "Datasheet" "http://www.diodes.com/assets/Datasheets/ds30366.pdf" (id 3) (at 209.55 57.15 0)
      (effects (font (size 1.27 1.27)) (justify left) hide)
    )
    (pin "1" (uuid 514e6250-ed38-454c-898e-2c6ae509defb))
    (pin "2" (uuid 74c787fd-75d9-48e8-8778-e7d3831e3bbd))
    (pin "3" (uuid f21855bc-52fc-4813-9dc3-eadd7eda9ace))
  )

  (symbol (lib_id "Device:D_Zener") (at 223.52 62.23 270) (unit 1)
    (in_bom yes) (on_board yes)
    (uuid 0b093a91-66e2-43e1-82b6-6ed579a6bca3)
    (property "Reference" "D11" (id 0) (at 226.06 60.96 90)
      (effects (font (size 1.27 1.27)) (justify left))
    )
    (property "Value" "12v" (id 1) (at 226.06 63.5 90)
      (effects (font (size 1.27 1.27)) (justify left))
    )
    (property "Footprint" "Diode_SMD:D_SOD-123F" (id 2) (at 223.52 62.23 0)
      (effects (font (size 1.27 1.27)) hide)
    )
    (property "Datasheet" "~" (id 3) (at 223.52 62.23 0)
      (effects (font (size 1.27 1.27)) hide)
    )
    (property "P/N" "NZH12B,115" (id 4) (at 223.52 67.31 90)
      (effects (font (size 0.635 0.635)))
    )
    (pin "1" (uuid 49171ad0-d5fe-457c-8771-7f29ebb96214))
    (pin "2" (uuid 6b1aeb4d-269a-4c66-9829-834460052aa0))
  )

  (symbol (lib_id "Device:C_Small") (at 74.93 52.07 0) (mirror x) (unit 1)
    (in_bom yes) (on_board yes)
    (uuid 0e4e81fe-ae99-45be-a6c1-cf8ce4a8ce7d)
    (property "Reference" "C42" (id 0) (at 72.39 50.7935 0)
      (effects (font (size 1.27 1.27)) (justify right))
    )
    (property "Value" "10u" (id 1) (at 72.39 53.3335 0)
      (effects (font (size 1.27 1.27)) (justify right))
    )
    (property "Footprint" "Capacitor_SMD:C_1210_3225Metric" (id 2) (at 74.93 52.07 0)
      (effects (font (size 1.27 1.27)) hide)
    )
    (property "Datasheet" "~" (id 3) (at 74.93 52.07 0)
      (effects (font (size 1.27 1.27)) hide)
    )
    (pin "1" (uuid 3b378b29-9566-40e4-b3a1-5c0863163a0f))
    (pin "2" (uuid 9ee1ecda-00e8-4634-ae8e-66382ff5a5a2))
  )

  (symbol (lib_id "Device:R_Small_US") (at 184.15 46.99 90) (mirror x) (unit 1)
    (in_bom yes) (on_board yes)
    (uuid 12217aa9-28cd-427f-b789-33d48b3fca13)
    (property "Reference" "R33" (id 0) (at 184.15 52.07 90))
    (property "Value" "240k" (id 1) (at 184.15 49.53 90))
    (property "Footprint" "Resistor_SMD:R_0603_1608Metric" (id 2) (at 184.15 46.99 0)
      (effects (font (size 1.27 1.27)) hide)
    )
    (property "Datasheet" "~" (id 3) (at 184.15 46.99 0)
      (effects (font (size 1.27 1.27)) hide)
    )
    (pin "1" (uuid 85896678-0c88-4502-b412-85bfb38a2031))
    (pin "2" (uuid 4c16344f-63a6-428d-ac9b-c337ca449b0c))
  )

  (symbol (lib_id "Device:R_Small_US") (at 88.9 53.34 0) (unit 1)
    (in_bom yes) (on_board yes) (fields_autoplaced)
    (uuid 2086c900-ebb6-462c-96a3-c4591b508b3e)
    (property "Reference" "R26" (id 0) (at 91.44 52.0699 0)
      (effects (font (size 1.27 1.27)) (justify left))
    )
    (property "Value" "10k" (id 1) (at 91.44 54.6099 0)
      (effects (font (size 1.27 1.27)) (justify left))
    )
    (property "Footprint" "Resistor_SMD:R_0805_2012Metric" (id 2) (at 88.9 53.34 0)
      (effects (font (size 1.27 1.27)) hide)
    )
    (property "Datasheet" "~" (id 3) (at 88.9 53.34 0)
      (effects (font (size 1.27 1.27)) hide)
    )
    (pin "1" (uuid bac6ec32-6c03-4dd0-8b38-1e162494e40b))
    (pin "2" (uuid 6d0f2405-a5f0-42ad-b03c-b10705b3eb57))
  )

  (symbol (lib_id "Transistor_FET:BSS123") (at 210.82 30.48 0) (unit 1)
    (in_bom yes) (on_board yes) (fields_autoplaced)
    (uuid 20a6d91b-dc3b-48a0-b7c0-748c8b05514f)
    (property "Reference" "Q13" (id 0) (at 217.17 29.2099 0)
      (effects (font (size 1.27 1.27)) (justify left))
    )
    (property "Value" "BSS123" (id 1) (at 217.17 31.7499 0)
      (effects (font (size 1.27 1.27)) (justify left))
    )
    (property "Footprint" "Package_TO_SOT_SMD:SOT-23" (id 2) (at 215.9 32.385 0)
      (effects (font (size 1.27 1.27) italic) (justify left) hide)
    )
    (property "Datasheet" "http://www.diodes.com/assets/Datasheets/ds30366.pdf" (id 3) (at 210.82 30.48 0)
      (effects (font (size 1.27 1.27)) (justify left) hide)
    )
    (pin "1" (uuid 45085d89-a658-4f96-b7f6-f13cf8bd6731))
    (pin "2" (uuid e3a159bd-cf98-4118-9e3c-314ce43bca7f))
    (pin "3" (uuid 7af52926-c458-43f7-82f6-a03e87f6deb9))
  )

  (symbol (lib_id "Device:R_Small_US") (at 227.33 27.94 0) (unit 1)
    (in_bom yes) (on_board yes) (fields_autoplaced)
    (uuid 2ef79b70-d6fc-434a-8cae-48e19c4132a3)
    (property "Reference" "R44" (id 0) (at 229.87 26.6699 0)
      (effects (font (size 1.27 1.27)) (justify left))
    )
    (property "Value" "1k" (id 1) (at 229.87 29.2099 0)
      (effects (font (size 1.27 1.27)) (justify left))
    )
    (property "Footprint" "Resistor_SMD:R_1206_3216Metric" (id 2) (at 227.33 27.94 0)
      (effects (font (size 1.27 1.27)) hide)
    )
    (property "Datasheet" "~" (id 3) (at 227.33 27.94 0)
      (effects (font (size 1.27 1.27)) hide)
    )
    (pin "1" (uuid 2bc8e545-4493-499c-a429-aa9c89481787))
    (pin "2" (uuid e9a827d3-df94-4ea0-9a7f-1750ec702c65))
  )

  (symbol (lib_id "Device:D_Schottky_Small") (at 50.8 62.23 270) (unit 1)
    (in_bom yes) (on_board yes) (fields_autoplaced)
    (uuid 386369e9-8510-476b-b687-a6d178bf099c)
    (property "Reference" "D15" (id 0) (at 53.34 60.7059 90)
      (effects (font (size 1.27 1.27)) (justify left))
    )
    (property "Value" "BAT46WH,115" (id 1) (at 53.34 63.2459 90)
      (effects (font (size 1.27 1.27)) (justify left))
    )
    (property "Footprint" "Diode_SMD:D_SOD-123F" (id 2) (at 50.8 62.23 90)
      (effects (font (size 1.27 1.27)) hide)
    )
    (property "Datasheet" "~" (id 3) (at 50.8 62.23 90)
      (effects (font (size 1.27 1.27)) hide)
    )
    (pin "1" (uuid b42ba6a5-a10b-4ffb-8fa2-d6e97d66b043))
    (pin "2" (uuid 4f34ab7b-bffe-40c2-867a-f5a7563714bf))
  )

  (symbol (lib_id "Device:R_Small_US") (at 134.62 57.15 0) (unit 1)
    (in_bom yes) (on_board yes) (fields_autoplaced)
    (uuid 444de6de-d372-457f-84d6-9e7983622cf9)
    (property "Reference" "R30" (id 0) (at 137.16 55.8799 0)
      (effects (font (size 1.27 1.27)) (justify left))
    )
    (property "Value" "100k/1%" (id 1) (at 137.16 58.4199 0)
      (effects (font (size 1.27 1.27)) (justify left))
    )
    (property "Footprint" "Resistor_SMD:R_0603_1608Metric" (id 2) (at 134.62 57.15 0)
      (effects (font (size 1.27 1.27)) hide)
    )
    (property "Datasheet" "~" (id 3) (at 134.62 57.15 0)
      (effects (font (size 1.27 1.27)) hide)
    )
    (pin "1" (uuid 643c8276-3236-434c-9401-cb2231d5b7e3))
    (pin "2" (uuid 321078d7-cdd6-44b7-a896-eb5767ce1742))
  )

  (symbol (lib_id "Device:R_Small_US") (at 198.12 57.15 90) (unit 1)
    (in_bom yes) (on_board yes) (fields_autoplaced)
    (uuid 4d055e7e-f662-411c-bfae-e137c661bcd5)
    (property "Reference" "R34" (id 0) (at 198.12 50.8 90))
    (property "Value" "10k" (id 1) (at 198.12 53.34 90))
    (property "Footprint" "Resistor_SMD:R_0805_2012Metric" (id 2) (at 198.12 57.15 0)
      (effects (font (size 1.27 1.27)) hide)
    )
    (property "Datasheet" "~" (id 3) (at 198.12 57.15 0)
      (effects (font (size 1.27 1.27)) hide)
    )
    (pin "1" (uuid e7302254-387f-47ab-bf45-b19c8211c639))
    (pin "2" (uuid 6fcc5186-5431-4703-96a9-0e15fd5a81c8))
  )

  (symbol (lib_id "Device:R_Small_US") (at 265.43 46.99 0) (unit 1)
    (in_bom yes) (on_board yes) (fields_autoplaced)
    (uuid 586eed2c-d1d8-42c9-975c-9e0b7925f383)
    (property "Reference" "R42" (id 0) (at 267.97 45.7199 0)
      (effects (font (size 1.27 1.27)) (justify left))
    )
    (property "Value" "1k" (id 1) (at 267.97 48.2599 0)
      (effects (font (size 1.27 1.27)) (justify left))
    )
    (property "Footprint" "Resistor_SMD:R_1206_3216Metric" (id 2) (at 265.43 46.99 0)
      (effects (font (size 1.27 1.27)) hide)
    )
    (property "Datasheet" "~" (id 3) (at 265.43 46.99 0)
      (effects (font (size 1.27 1.27)) hide)
    )
    (pin "1" (uuid 0c75343f-80b9-4ee4-98d2-600db10e7654))
    (pin "2" (uuid 5690dda2-e0be-428e-a9d7-dd6e3cfb8e6c))
  )

  (symbol (lib_id "Device:C_Small") (at 167.64 49.53 0) (mirror x) (unit 1)
    (in_bom yes) (on_board yes) (fields_autoplaced)
    (uuid 62a66c56-e121-421d-bdd9-c910acbb1421)
    (property "Reference" "C43" (id 0) (at 165.1 48.2535 0)
      (effects (font (size 1.27 1.27)) (justify right))
    )
    (property "Value" "100n" (id 1) (at 165.1 50.7935 0)
      (effects (font (size 1.27 1.27)) (justify right))
    )
    (property "Footprint" "Capacitor_SMD:C_0805_2012Metric" (id 2) (at 167.64 49.53 0)
      (effects (font (size 1.27 1.27)) hide)
    )
    (property "Datasheet" "~" (id 3) (at 167.64 49.53 0)
      (effects (font (size 1.27 1.27)) hide)
    )
    (pin "1" (uuid ddfb4f5a-14b0-47d3-b169-debd53132c93))
    (pin "2" (uuid 91900b88-fd8f-4674-9bea-7bae647161d1))
  )

  (symbol (lib_id "Device:D_Zener") (at 96.52 62.23 270) (unit 1)
    (in_bom yes) (on_board yes)
    (uuid 7161086b-63b0-4065-b850-15cade458f45)
    (property "Reference" "D8" (id 0) (at 99.06 60.96 90)
      (effects (font (size 1.27 1.27)) (justify left))
    )
    (property "Value" "12v" (id 1) (at 99.06 63.5 90)
      (effects (font (size 1.27 1.27)) (justify left))
    )
    (property "Footprint" "Diode_SMD:D_SOD-123F" (id 2) (at 96.52 62.23 0)
      (effects (font (size 1.27 1.27)) hide)
    )
    (property "Datasheet" "~" (id 3) (at 96.52 62.23 0)
      (effects (font (size 1.27 1.27)) hide)
    )
    (property "P/N" "NZH12B,115" (id 4) (at 96.52 67.31 90)
      (effects (font (size 0.635 0.635)))
    )
    (pin "1" (uuid 506e9ffd-6fac-43ae-a946-c34d39245ef9))
    (pin "2" (uuid 46799c1f-6424-448b-9079-ac6c01e46ad6))
  )

  (symbol (lib_id "Device:C_Small") (at 66.04 52.07 0) (mirror x) (unit 1)
    (in_bom yes) (on_board yes)
    (uuid 74f0a3d3-73e1-46de-95e7-8f236a718755)
    (property "Reference" "C41" (id 0) (at 63.5 50.7935 0)
      (effects (font (size 1.27 1.27)) (justify right))
    )
    (property "Value" "10u" (id 1) (at 63.5 53.3335 0)
      (effects (font (size 1.27 1.27)) (justify right))
    )
    (property "Footprint" "Capacitor_SMD:C_1210_3225Metric" (id 2) (at 66.04 52.07 0)
      (effects (font (size 1.27 1.27)) hide)
    )
    (property "Datasheet" "~" (id 3) (at 66.04 52.07 0)
      (effects (font (size 1.27 1.27)) hide)
    )
    (property "P/N" "GCM32EC71H106KA03L" (id 4) (at 59.69 55.88 0)
      (effects (font (size 0.635 0.635)))
    )
    (pin "1" (uuid eeae23e9-30dd-417d-a152-7c992ec7789f))
    (pin "2" (uuid 3fa6e14c-7876-4fd2-bb88-c9f55438bd83))
  )

  (symbol (lib_id "Reference_Voltage:LM4040DBZ-10") (at 129.54 57.15 270) (mirror x) (unit 1)
    (in_bom yes) (on_board yes) (fields_autoplaced)
    (uuid 77be8478-1758-4129-8cae-0c0856988fdf)
    (property "Reference" "U4" (id 0) (at 127 55.8799 90)
      (effects (font (size 1.27 1.27)) (justify right))
    )
    (property "Value" "LM4040DBZ-10" (id 1) (at 127 58.4199 90)
      (effects (font (size 1.27 1.27)) (justify right))
    )
    (property "Footprint" "Package_TO_SOT_SMD:SOT-23" (id 2) (at 124.46 57.15 0)
      (effects (font (size 1.27 1.27) italic) hide)
    )
    (property "Datasheet" "http://www.ti.com/lit/ds/symlink/lm4040-n.pdf" (id 3) (at 129.54 57.15 0)
      (effects (font (size 1.27 1.27) italic) hide)
    )
    (pin "1" (uuid b4653737-8664-4819-b015-3663cb840d15))
    (pin "2" (uuid 06877875-0750-4750-bb19-06f3a8522995))
  )

  (symbol (lib_id "Device:R_Small_US") (at 149.86 58.42 0) (unit 1)
    (in_bom yes) (on_board yes) (fields_autoplaced)
    (uuid 7da7999a-2c2c-43b5-9cf9-9f66fe9626af)
    (property "Reference" "R31" (id 0) (at 152.4 57.1499 0)
      (effects (font (size 1.27 1.27)) (justify left))
    )
    (property "Value" "100k/1%" (id 1) (at 152.4 59.6899 0)
      (effects (font (size 1.27 1.27)) (justify left))
    )
    (property "Footprint" "Resistor_SMD:R_0603_1608Metric" (id 2) (at 149.86 58.42 0)
      (effects (font (size 1.27 1.27)) hide)
    )
    (property "Datasheet" "~" (id 3) (at 149.86 58.42 0)
      (effects (font (size 1.27 1.27)) hide)
    )
    (pin "1" (uuid fa7e00e6-811f-4839-86ea-086d7dac2875))
    (pin "2" (uuid cf5b7009-34b0-4011-a7b9-fb9c8363c617))
  )

  (symbol (lib_id "Comparator:TL331") (at 181.61 57.15 0) (unit 1)
    (in_bom yes) (on_board yes)
    (uuid 8594b0a8-45ed-4c69-9b4d-82bd10431e2e)
    (property "Reference" "U5" (id 0) (at 184.15 60.96 0))
    (property "Value" "TL331" (id 1) (at 184.15 63.5 0))
    (property "Footprint" "Package_TO_SOT_SMD:SOT-23-5" (id 2) (at 182.88 72.39 0)
      (effects (font (size 1.27 1.27)) hide)
    )
    (property "Datasheet" "http://www.ti.com/lit/ds/symlink/tl331.pdf" (id 3) (at 181.61 52.07 0)
      (effects (font (size 1.27 1.27)) hide)
    )
    (pin "1" (uuid 3eadd99b-d036-423a-9bd7-869f95180a46))
    (pin "2" (uuid f09c3e92-b9dd-4d85-929f-12171ab5d410))
    (pin "3" (uuid 8638c0e8-57fe-40a2-8fd7-4bfad1a906c0))
    (pin "4" (uuid 4b5d46e1-f093-4d3a-8e5e-82f0dcc85568))
    (pin "5" (uuid c7b62c6f-1f55-4535-9df9-ef2669d5ebfd))
  )

  (symbol (lib_id "Device:R_Small_US") (at 134.62 52.07 0) (unit 1)
    (in_bom yes) (on_board yes) (fields_autoplaced)
    (uuid 89bbb7a8-e9e6-4a2e-8c4a-27e40c37c532)
    (property "Reference" "R29" (id 0) (at 137.16 50.7999 0)
      (effects (font (size 1.27 1.27)) (justify left))
    )
    (property "Value" "15k/1%" (id 1) (at 137.16 53.3399 0)
      (effects (font (size 1.27 1.27)) (justify left))
    )
    (property "Footprint" "Resistor_SMD:R_0603_1608Metric" (id 2) (at 134.62 52.07 0)
      (effects (font (size 1.27 1.27)) hide)
    )
    (property "Datasheet" "~" (id 3) (at 134.62 52.07 0)
      (effects (font (size 1.27 1.27)) hide)
    )
    (pin "1" (uuid 8f7bf177-971e-456b-8acd-68909d628351))
    (pin "2" (uuid 2be76388-9394-43db-a58c-1f922b38211c))
  )

  (symbol (lib_id "Device:Polyfuse") (at 30.48 39.37 90) (unit 1)
    (in_bom yes) (on_board yes)
    (uuid 9508cd19-a8ff-4fb5-bc7c-d402b2be7e51)
    (property "Reference" "F1" (id 0) (at 30.48 33.02 90))
    (property "Value" "Keystone 3568" (id 1) (at 30.48 35.56 90))
    (property "Footprint" "Fuse:Fuseholder_Blade_Mini_Keystone_3568" (id 2) (at 35.56 38.1 0)
      (effects (font (size 1.27 1.27)) (justify left) hide)
    )
    (property "Datasheet" "~" (id 3) (at 30.48 39.37 0)
      (effects (font (size 1.27 1.27)) hide)
    )
    (pin "1" (uuid 0a1a2ab1-ade8-449a-9ece-a2a4b5564837))
    (pin "2" (uuid 776009fc-4f92-4cec-b400-0c13639e1191))
  )

  (symbol (lib_id "Device:R_Small_US") (at 149.86 63.5 0) (unit 1)
    (in_bom yes) (on_board yes) (fields_autoplaced)
    (uuid acd530e8-8e51-4124-bd63-fc7720a20a4b)
    (property "Reference" "R32" (id 0) (at 152.4 62.2299 0)
      (effects (font (size 1.27 1.27)) (justify left))
    )
    (property "Value" "100k/1%" (id 1) (at 152.4 64.7699 0)
      (effects (font (size 1.27 1.27)) (justify left))
    )
    (property "Footprint" "Resistor_SMD:R_0603_1608Metric" (id 2) (at 149.86 63.5 0)
      (effects (font (size 1.27 1.27)) hide)
    )
    (property "Datasheet" "~" (id 3) (at 149.86 63.5 0)
      (effects (font (size 1.27 1.27)) hide)
    )
    (pin "1" (uuid 918a153f-96f1-45cf-aa95-6d292aaf1fb8))
    (pin "2" (uuid 52b5eadd-aab3-4909-87d7-c66975284844))
  )

  (symbol (lib_id "Device:R_Small_US") (at 50.8 55.88 180) (unit 1)
    (in_bom yes) (on_board yes) (fields_autoplaced)
    (uuid ad36866a-5ae0-48de-b498-683374d28627)
    (property "Reference" "R43" (id 0) (at 48.26 57.1501 0)
      (effects (font (size 1.27 1.27)) (justify left))
    )
    (property "Value" "1k" (id 1) (at 48.26 54.6101 0)
      (effects (font (size 1.27 1.27)) (justify left))
    )
    (property "Footprint" "Resistor_SMD:R_1206_3216Metric" (id 2) (at 50.8 55.88 0)
      (effects (font (size 1.27 1.27)) hide)
    )
    (property "Datasheet" "~" (id 3) (at 50.8 55.88 0)
      (effects (font (size 1.27 1.27)) hide)
    )
    (pin "1" (uuid b29fac92-c838-454c-99b1-977e3470e0e4))
    (pin "2" (uuid ab694bb4-85de-487d-97e0-952235d1e70c))
  )

  (symbol (lib_id "Transistor_FET:FDMS86255ET150") (at 233.68 63.5 270) (unit 1)
    (in_bom yes) (on_board yes) (fields_autoplaced)
    (uuid b14cfa7c-d8ef-4e2b-9235-db121c2f7709)
    (property "Reference" "Q11" (id 0) (at 233.68 71.12 90))
    (property "Value" "HYG015N04LS1C2" (id 1) (at 233.68 73.66 90))
    (property "Footprint" "Package_TO_SOT_SMD:TDSON-8-1" (id 2) (at 231.775 68.58 0)
      (effects (font (size 1.27 1.27) italic) (justify left) hide)
    )
    (property "Datasheet" "https://www.onsemi.com/pub/Collateral/FDMS86255ET150-D.pdf" (id 3) (at 233.68 63.5 90)
      (effects (font (size 1.27 1.27)) (justify left) hide)
    )
    (pin "1" (uuid c094d0c9-3dc1-4f38-b38f-406b97e4ab8f))
    (pin "2" (uuid 5a8a13fc-ce3f-4b52-aa84-a4609f7603fd))
    (pin "3" (uuid 3eef7187-3103-4a3a-b717-4839f885c2b3))
    (pin "4" (uuid 50b7d792-75b3-4ca4-b705-165de1ebd0a5))
    (pin "5" (uuid 7e57b7d7-c23d-445d-b374-652308af6aa1))
  )

  (symbol (lib_id "Device:R_Small_US") (at 102.87 62.23 0) (unit 1)
    (in_bom yes) (on_board yes) (fields_autoplaced)
    (uuid b4d0c49e-09ef-4f9d-a15c-bde9b9ad7306)
    (property "Reference" "R27" (id 0) (at 105.41 60.9599 0)
      (effects (font (size 1.27 1.27)) (justify left))
    )
    (property "Value" "100k" (id 1) (at 105.41 63.4999 0)
      (effects (font (size 1.27 1.27)) (justify left))
    )
    (property "Footprint" "Resistor_SMD:R_0603_1608Metric" (id 2) (at 102.87 62.23 0)
      (effects (font (size 1.27 1.27)) hide)
    )
    (property "Datasheet" "~" (id 3) (at 102.87 62.23 0)
      (effects (font (size 1.27 1.27)) hide)
    )
    (pin "1" (uuid f4743bc7-3604-4ebc-84cc-8d98b43782ec))
    (pin "2" (uuid 26131207-432d-4dee-93b4-f5fcd899509e))
  )

  (symbol (lib_id "Device:C_Small") (at 243.84 52.07 180) (unit 1)
    (in_bom yes) (on_board yes)
    (uuid bfbec907-d86f-4bce-8e0c-99f3525953ee)
    (property "Reference" "C44" (id 0) (at 246.38 50.7935 0)
      (effects (font (size 1.27 1.27)) (justify right))
    )
    (property "Value" "10u" (id 1) (at 246.38 53.3335 0)
      (effects (font (size 1.27 1.27)) (justify right))
    )
    (property "Footprint" "Capacitor_SMD:C_1210_3225Metric" (id 2) (at 243.84 52.07 0)
      (effects (font (size 1.27 1.27)) hide)
    )
    (property "Datasheet" "~" (id 3) (at 243.84 52.07 0)
      (effects (font (size 1.27 1.27)) hide)
    )
    (property "P/N" "GCM32EC71H106KA03L" (id 4) (at 250.19 55.88 0)
      (effects (font (size 0.635 0.635)))
    )
    (pin "1" (uuid 52116a7e-77cd-4522-80cb-5dd98b20dba4))
    (pin "2" (uuid 9b2e8119-89fc-407f-8f88-33695313da38))
  )

  (symbol (lib_id "Device:LED") (at 50.8 48.26 270) (unit 1)
    (in_bom yes) (on_board yes) (fields_autoplaced)
    (uuid c84aabad-a7c2-4529-8e13-25545039f89c)
    (property "Reference" "D14" (id 0) (at 46.99 47.9426 90)
      (effects (font (size 1.27 1.27)) (justify right))
    )
    (property "Value" "LED" (id 1) (at 46.99 45.4026 90)
      (effects (font (size 1.27 1.27)) (justify right))
    )
    (property "Footprint" "LED_SMD:LED_0805_2012Metric" (id 2) (at 50.8 48.26 0)
      (effects (font (size 1.27 1.27)) hide)
    )
    (property "Datasheet" "~" (id 3) (at 50.8 48.26 0)
      (effects (font (size 1.27 1.27)) hide)
    )
    (pin "1" (uuid 946543d2-fa37-48cd-9781-91dea4242845))
    (pin "2" (uuid 9ea0a788-89fd-4149-8820-d8ca12705512))
  )

  (symbol (lib_id "Device:D_TVS") (at 34.29 52.07 270) (mirror x) (unit 1)
    (in_bom yes) (on_board yes) (fields_autoplaced)
    (uuid c93f30c6-3481-488a-8d06-823915dc2e8f)
    (property "Reference" "D7" (id 0) (at 36.83 50.7999 90)
      (effects (font (size 1.27 1.27)) (justify left))
    )
    (property "Value" "SMBJ26CA" (id 1) (at 36.83 53.3399 90)
      (effects (font (size 1.27 1.27)) (justify left))
    )
    (property "Footprint" "Diode_SMD:D_SMB" (id 2) (at 34.29 52.07 0)
      (effects (font (size 1.27 1.27)) hide)
    )
    (property "Datasheet" "~" (id 3) (at 34.29 52.07 0)
      (effects (font (size 1.27 1.27)) hide)
    )
    (pin "1" (uuid 86ae2c29-2bd5-4be8-b052-516580f01c20))
    (pin "2" (uuid b3df8a15-487d-4fe0-aa24-b2161919ac72))
  )

  (symbol (lib_id "Device:R_Small_US") (at 233.68 45.72 180) (unit 1)
    (in_bom yes) (on_board yes) (fields_autoplaced)
    (uuid d347ceb5-ad7e-446c-9cd1-3a567ac41d37)
    (property "Reference" "R37" (id 0) (at 236.22 44.4499 0)
      (effects (font (size 1.27 1.27)) (justify right))
    )
    (property "Value" "10k" (id 1) (at 236.22 46.9899 0)
      (effects (font (size 1.27 1.27)) (justify right))
    )
    (property "Footprint" "Resistor_SMD:R_0805_2012Metric" (id 2) (at 233.68 45.72 0)
      (effects (font (size 1.27 1.27)) hide)
    )
    (property "Datasheet" "~" (id 3) (at 233.68 45.72 0)
      (effects (font (size 1.27 1.27)) hide)
    )
    (pin "1" (uuid fefed933-0e08-4bb8-9cf4-328b0a10f2a2))
    (pin "2" (uuid e8412658-ece1-4824-9d7a-32fb433107dc))
  )

  (symbol (lib_id "Device:LED") (at 213.36 21.59 90) (unit 1)
    (in_bom yes) (on_board yes) (fields_autoplaced)
    (uuid d8151146-572a-437e-a614-cd91abc23bc4)
    (property "Reference" "D16" (id 0) (at 217.17 21.9074 90)
      (effects (font (size 1.27 1.27)) (justify right))
    )
    (property "Value" "LED" (id 1) (at 217.17 24.4474 90)
      (effects (font (size 1.27 1.27)) (justify right))
    )
    (property "Footprint" "LED_SMD:LED_0805_2012Metric" (id 2) (at 213.36 21.59 0)
      (effects (font (size 1.27 1.27)) hide)
    )
    (property "Datasheet" "~" (id 3) (at 213.36 21.59 0)
      (effects (font (size 1.27 1.27)) hide)
    )
    (pin "1" (uuid 7f85219c-62d7-4522-a783-16d58ae60ab2))
    (pin "2" (uuid bd9ebbe2-9f34-4290-a638-5c3492352c48))
  )

  (symbol (lib_id "Device:LED") (at 265.43 57.15 90) (unit 1)
    (in_bom yes) (on_board yes) (fields_autoplaced)
    (uuid d8ca68f3-07e3-4401-864f-36feb8eabfc8)
    (property "Reference" "D13" (id 0) (at 269.24 57.4674 90)
      (effects (font (size 1.27 1.27)) (justify right))
    )
    (property "Value" "LED" (id 1) (at 269.24 60.0074 90)
      (effects (font (size 1.27 1.27)) (justify right))
    )
    (property "Footprint" "LED_SMD:LED_0805_2012Metric" (id 2) (at 265.43 57.15 0)
      (effects (font (size 1.27 1.27)) hide)
    )
    (property "Datasheet" "~" (id 3) (at 265.43 57.15 0)
      (effects (font (size 1.27 1.27)) hide)
    )
    (pin "1" (uuid 1d8ac1b9-3775-4580-8093-9bd7dde86a1f))
    (pin "2" (uuid 71aee91e-6716-4680-a799-461d826daa1a))
  )

  (symbol (lib_id "Device:D_Schottky_Small") (at 102.87 49.53 270) (unit 1)
    (in_bom yes) (on_board yes)
    (uuid e5188262-c117-4a98-aef5-a86de83a55ce)
    (property "Reference" "D9" (id 0) (at 105.41 49.53 0))
    (property "Value" "BAT46WH,115" (id 1) (at 100.33 49.53 0))
    (property "Footprint" "Diode_SMD:D_SOD-123F" (id 2) (at 102.87 49.53 90)
      (effects (font (size 1.27 1.27)) hide)
    )
    (property "Datasheet" "~" (id 3) (at 102.87 49.53 90)
      (effects (font (size 1.27 1.27)) hide)
    )
    (pin "1" (uuid 79cd8dca-d79f-4f20-8b87-786a13ba86da))
    (pin "2" (uuid 0c4fcaa7-d719-4aaa-bacb-205c72f2f4e9))
  )

  (symbol (lib_id "Device:R_Small_US") (at 201.93 49.53 180) (unit 1)
    (in_bom yes) (on_board yes) (fields_autoplaced)
    (uuid e6b03cc5-1d7d-47cc-b651-49eb5a467d8d)
    (property "Reference" "R39" (id 0) (at 204.47 48.2599 0)
      (effects (font (size 1.27 1.27)) (justify right))
    )
    (property "Value" "470k" (id 1) (at 204.47 50.7999 0)
      (effects (font (size 1.27 1.27)) (justify right))
    )
    (property "Footprint" "Resistor_SMD:R_0603_1608Metric" (id 2) (at 201.93 49.53 0)
      (effects (font (size 1.27 1.27)) hide)
    )
    (property "Datasheet" "~" (id 3) (at 201.93 49.53 0)
      (effects (font (size 1.27 1.27)) hide)
    )
    (pin "1" (uuid 59b817a6-5c20-48e8-8505-fb30b8a1f7b3))
    (pin "2" (uuid 811c0644-74e3-4de2-9f62-bffa1b46f90b))
  )

  (symbol (lib_id "Transistor_FET:FDMS86255ET150") (at 88.9 63.5 90) (mirror x) (unit 1)
    (in_bom yes) (on_board yes) (fields_autoplaced)
    (uuid e80a1ba4-f1a7-4e52-8bf3-0099cb73fc93)
    (property "Reference" "Q9" (id 0) (at 88.9 71.12 90))
    (property "Value" "HYG015N04LS1C2" (id 1) (at 88.9 73.66 90))
    (property "Footprint" "Package_TO_SOT_SMD:TDSON-8-1" (id 2) (at 90.805 68.58 0)
      (effects (font (size 1.27 1.27) italic) (justify left) hide)
    )
    (property "Datasheet" "https://www.onsemi.com/pub/Collateral/FDMS86255ET150-D.pdf" (id 3) (at 88.9 63.5 90)
      (effects (font (size 1.27 1.27)) (justify left) hide)
    )
    (pin "1" (uuid 9952dafb-b8ca-48e2-b160-aceb86d2d22a))
    (pin "2" (uuid 5a482b51-4448-40ba-ac1c-302d90b18268))
    (pin "3" (uuid d547dc8e-a97e-4104-847a-d49cb11cdee3))
    (pin "4" (uuid b014e474-d4e1-463b-94bf-1a7d0a5862db))
    (pin "5" (uuid 7b7170ff-79dd-448b-bced-1d9338efbe90))
  )

  (symbol (lib_id "Device:R_Small_US") (at 129.54 44.45 0) (mirror y) (unit 1)
    (in_bom yes) (on_board yes) (fields_autoplaced)
    (uuid fb4da172-a93e-45dd-a88d-2972ecba9649)
    (property "Reference" "R28" (id 0) (at 127 43.1799 0)
      (effects (font (size 1.27 1.27)) (justify left))
    )
    (property "Value" "22k/1%" (id 1) (at 127 45.7199 0)
      (effects (font (size 1.27 1.27)) (justify left))
    )
    (property "Footprint" "Resistor_SMD:R_0603_1608Metric" (id 2) (at 129.54 44.45 0)
      (effects (font (size 1.27 1.27)) hide)
    )
    (property "Datasheet" "~" (id 3) (at 129.54 44.45 0)
      (effects (font (size 1.27 1.27)) hide)
    )
    (pin "1" (uuid 41978007-76ca-4654-9027-f17f3d1ac563))
    (pin "2" (uuid a185ac03-882d-4568-898e-5ce4c7b47ee6))
  )
)
